^C:\USERS\100458273\DOCUMENTS\DISCOVERENGINE\DISCOVERYENGINE\DISCOVERYENGINE\ANIMATIONMATH.CPP
/c /ZI /nologo /W3 /WX- /diagnostics:classic /sdl /Od /Oy- /D _CRT_SECURE_NO_WARNINGS /D _MBCS /Gm /EHsc /RTC1 /MDd /GS /fp:precise /Zc:wchar_t /Zc:forScope /Zc:inline /Fo"DEBUG\\" /Fd"DEBUG\VC141.PDB" /Gd /TP /analyze- C:\USERS\100458273\DOCUMENTS\DISCOVERENGINE\DISCOVERYENGINE\DISCOVERYENGINE\ANIMATIONMATH.CPP
^C:\USERS\100458273\DOCUMENTS\DISCOVERENGINE\DISCOVERYENGINE\DISCOVERYENGINE\AUDIOMANAGER.CPP
/c /ZI /nologo /W3 /WX- /diagnostics:classic /sdl /Od /Oy- /D _CRT_SECURE_NO_WARNINGS /D _MBCS /Gm /EHsc /RTC1 /MDd /GS /fp:precise /Zc:wchar_t /Zc:forScope /Zc:inline /Fo"DEBUG\\" /Fd"DEBUG\VC141.PDB" /Gd /TP /analyze- C:\USERS\100458273\DOCUMENTS\DISCOVERENGINE\DISCOVERYENGINE\DISCOVERYENGINE\AUDIOMANAGER.CPP
^C:\USERS\100458273\DOCUMENTS\DISCOVERENGINE\DISCOVERYENGINE\DISCOVERYENGINE\AUDIOSYSTEM.CPP
/c /ZI /nologo /W3 /WX- /diagnostics:classic /sdl /Od /Oy- /D _CRT_SECURE_NO_WARNINGS /D _MBCS /Gm /EHsc /RTC1 /MDd /GS /fp:precise /Zc:wchar_t /Zc:forScope /Zc:inline /Fo"DEBUG\\" /Fd"DEBUG\VC141.PDB" /Gd /TP /analyze- C:\USERS\100458273\DOCUMENTS\DISCOVERENGINE\DISCOVERYENGINE\DISCOVERYENGINE\AUDIOSYSTEM.CPP
^C:\USERS\100458273\DOCUMENTS\DISCOVERENGINE\DISCOVERYENGINE\DISCOVERYENGINE\BLENDEDGAMEOBJECT.CPP
/c /ZI /nologo /W3 /WX- /diagnostics:classic /sdl /Od /Oy- /D _CRT_SECURE_NO_WARNINGS /D _MBCS /Gm /EHsc /RTC1 /MDd /GS /fp:precise /Zc:wchar_t /Zc:forScope /Zc:inline /Fo"DEBUG\\" /Fd"DEBUG\VC141.PDB" /Gd /TP /analyze- C:\USERS\100458273\DOCUMENTS\DISCOVERENGINE\DISCOVERYENGINE\DISCOVERYENGINE\BLENDEDGAMEOBJECT.CPP
^C:\USERS\100458273\DOCUMENTS\DISCOVERENGINE\DISCOVERYENGINE\DISCOVERYENGINE\BONE.CPP
/c /ZI /nologo /W3 /WX- /diagnostics:classic /sdl /Od /Oy- /D _CRT_SECURE_NO_WARNINGS /D _MBCS /Gm /EHsc /RTC1 /MDd /GS /fp:precise /Zc:wchar_t /Zc:forScope /Zc:inline /Fo"DEBUG\\" /Fd"DEBUG\VC141.PDB" /Gd /TP /analyze- C:\USERS\100458273\DOCUMENTS\DISCOVERENGINE\DISCOVERYENGINE\DISCOVERYENGINE\BONE.CPP
^C:\USERS\100458273\DOCUMENTS\DISCOVERENGINE\DISCOVERYENGINE\DISCOVERYENGINE\CAMERA.CPP
/c /ZI /nologo /W3 /WX- /diagnostics:classic /sdl /Od /Oy- /D _CRT_SECURE_NO_WARNINGS /D _MBCS /Gm /EHsc /RTC1 /MDd /GS /fp:precise /Zc:wchar_t /Zc:forScope /Zc:inline /Fo"DEBUG\\" /Fd"DEBUG\VC141.PDB" /Gd /TP /analyze- C:\USERS\100458273\DOCUMENTS\DISCOVERENGINE\DISCOVERYENGINE\DISCOVERYENGINE\CAMERA.CPP
^C:\USERS\100458273\DOCUMENTS\DISCOVERENGINE\DISCOVERYENGINE\DISCOVERYENGINE\COMMON.CPP
/c /ZI /nologo /W3 /WX- /diagnostics:classic /sdl /Od /Oy- /D _CRT_SECURE_NO_WARNINGS /D _MBCS /Gm /EHsc /RTC1 /MDd /GS /fp:precise /Zc:wchar_t /Zc:forScope /Zc:inline /Fo"DEBUG\\" /Fd"DEBUG\VC141.PDB" /Gd /TP /analyze- C:\USERS\100458273\DOCUMENTS\DISCOVERENGINE\DISCOVERYENGINE\DISCOVERYENGINE\COMMON.CPP
^C:\USERS\100458273\DOCUMENTS\DISCOVERENGINE\DISCOVERYENGINE\DISCOVERYENGINE\COMMON_PLATFORM.CPP
/c /ZI /nologo /W3 /WX- /diagnostics:classic /sdl /Od /Oy- /D _CRT_SECURE_NO_WARNINGS /D _MBCS /Gm /EHsc /RTC1 /MDd /GS /fp:precise /Zc:wchar_t /Zc:forScope /Zc:inline /Fo"DEBUG\\" /Fd"DEBUG\VC141.PDB" /Gd /TP /analyze- C:\USERS\100458273\DOCUMENTS\DISCOVERENGINE\DISCOVERYENGINE\DISCOVERYENGINE\COMMON_PLATFORM.CPP
^C:\USERS\100458273\DOCUMENTS\DISCOVERENGINE\DISCOVERYENGINE\DISCOVERYENGINE\FRAMEBUFFER.CPP
/c /ZI /nologo /W3 /WX- /diagnostics:classic /sdl /Od /Oy- /D _CRT_SECURE_NO_WARNINGS /D _MBCS /Gm /EHsc /RTC1 /MDd /GS /fp:precise /Zc:wchar_t /Zc:forScope /Zc:inline /Fo"DEBUG\\" /Fd"DEBUG\VC141.PDB" /Gd /TP /analyze- C:\USERS\100458273\DOCUMENTS\DISCOVERENGINE\DISCOVERYENGINE\DISCOVERYENGINE\FRAMEBUFFER.CPP
^C:\USERS\100458273\DOCUMENTS\DISCOVERENGINE\DISCOVERYENGINE\DISCOVERYENGINE\GAMEOBJECT.CPP
/c /ZI /nologo /W3 /WX- /diagnostics:classic /sdl /Od /Oy- /D _CRT_SECURE_NO_WARNINGS /D _MBCS /Gm /EHsc /RTC1 /MDd /GS /fp:precise /Zc:wchar_t /Zc:forScope /Zc:inline /Fo"DEBUG\\" /Fd"DEBUG\VC141.PDB" /Gd /TP /analyze- C:\USERS\100458273\DOCUMENTS\DISCOVERENGINE\DISCOVERYENGINE\DISCOVERYENGINE\GAMEOBJECT.CPP
^C:\USERS\100458273\DOCUMENTS\DISCOVERENGINE\DISCOVERYENGINE\DISCOVERYENGINE\GBUFFER.CPP
/c /ZI /nologo /W3 /WX- /diagnostics:classic /sdl /Od /Oy- /D _CRT_SECURE_NO_WARNINGS /D _MBCS /Gm /EHsc /RTC1 /MDd /GS /fp:precise /Zc:wchar_t /Zc:forScope /Zc:inline /Fo"DEBUG\\" /Fd"DEBUG\VC141.PDB" /Gd /TP /analyze- C:\USERS\100458273\DOCUMENTS\DISCOVERENGINE\DISCOVERYENGINE\DISCOVERYENGINE\GBUFFER.CPP
^C:\USERS\100458273\DOCUMENTS\DISCOVERENGINE\DISCOVERYENGINE\DISCOVERYENGINE\KEYFRAMECONTROLLER.CPP
/c /ZI /nologo /W3 /WX- /diagnostics:classic /sdl /Od /Oy- /D _CRT_SECURE_NO_WARNINGS /D _MBCS /Gm /EHsc /RTC1 /MDd /GS /fp:precise /Zc:wchar_t /Zc:forScope /Zc:inline /Fo"DEBUG\\" /Fd"DEBUG\VC141.PDB" /Gd /TP /analyze- C:\USERS\100458273\DOCUMENTS\DISCOVERENGINE\DISCOVERYENGINE\DISCOVERYENGINE\KEYFRAMECONTROLLER.CPP
^C:\USERS\100458273\DOCUMENTS\DISCOVERENGINE\DISCOVERYENGINE\DISCOVERYENGINE\LIGHT.CPP
/c /ZI /nologo /W3 /WX- /diagnostics:classic /sdl /Od /Oy- /D _CRT_SECURE_NO_WARNINGS /D _MBCS /Gm /EHsc /RTC1 /MDd /GS /fp:precise /Zc:wchar_t /Zc:forScope /Zc:inline /Fo"DEBUG\\" /Fd"DEBUG\VC141.PDB" /Gd /TP /analyze- C:\USERS\100458273\DOCUMENTS\DISCOVERENGINE\DISCOVERYENGINE\DISCOVERYENGINE\LIGHT.CPP
^C:\USERS\100458273\DOCUMENTS\DISCOVERENGINE\DISCOVERYENGINE\DISCOVERYENGINE\MAIN.CPP
/c /ZI /nologo /W3 /WX- /diagnostics:classic /sdl /Od /Oy- /D _CRT_SECURE_NO_WARNINGS /D _MBCS /Gm /EHsc /RTC1 /MDd /GS /fp:precise /Zc:wchar_t /Zc:forScope /Zc:inline /Fo"DEBUG\\" /Fd"DEBUG\VC141.PDB" /Gd /TP /analyze- C:\USERS\100458273\DOCUMENTS\DISCOVERENGINE\DISCOVERYENGINE\DISCOVERYENGINE\MAIN.CPP
^C:\USERS\100458273\DOCUMENTS\DISCOVERENGINE\DISCOVERYENGINE\DISCOVERYENGINE\MAINMUSIC.CPP
/c /ZI /nologo /W3 /WX- /diagnostics:classic /sdl /Od /Oy- /D _CRT_SECURE_NO_WARNINGS /D _MBCS /Gm /EHsc /RTC1 /MDd /GS /fp:precise /Zc:wchar_t /Zc:forScope /Zc:inline /Fo"DEBUG\\" /Fd"DEBUG\VC141.PDB" /Gd /TP /analyze- C:\USERS\100458273\DOCUMENTS\DISCOVERENGINE\DISCOVERYENGINE\DISCOVERYENGINE\MAINMUSIC.CPP
^C:\USERS\100458273\DOCUMENTS\DISCOVERENGINE\DISCOVERYENGINE\DISCOVERYENGINE\MENUSTATE.CPP
/c /ZI /nologo /W3 /WX- /diagnostics:classic /sdl /Od /Oy- /D _CRT_SECURE_NO_WARNINGS /D _MBCS /Gm /EHsc /RTC1 /MDd /GS /fp:precise /Zc:wchar_t /Zc:forScope /Zc:inline /Fo"DEBUG\\" /Fd"DEBUG\VC141.PDB" /Gd /TP /analyze- C:\USERS\100458273\DOCUMENTS\DISCOVERENGINE\DISCOVERYENGINE\DISCOVERYENGINE\MENUSTATE.CPP
^C:\USERS\100458273\DOCUMENTS\DISCOVERENGINE\DISCOVERYENGINE\DISCOVERYENGINE\MESH.CPP
/c /ZI /nologo /W3 /WX- /diagnostics:classic /sdl /Od /Oy- /D _CRT_SECURE_NO_WARNINGS /D _MBCS /Gm /EHsc /RTC1 /MDd /GS /fp:precise /Zc:wchar_t /Zc:forScope /Zc:inline /Fo"DEBUG\\" /Fd"DEBUG\VC141.PDB" /Gd /TP /analyze- C:\USERS\100458273\DOCUMENTS\DISCOVERENGINE\DISCOVERYENGINE\DISCOVERYENGINE\MESH.CPP
^C:\USERS\100458273\DOCUMENTS\DISCOVERENGINE\DISCOVERYENGINE\DISCOVERYENGINE\MESHLINE.CPP
/c /ZI /nologo /W3 /WX- /diagnostics:classic /sdl /Od /Oy- /D _CRT_SECURE_NO_WARNINGS /D _MBCS /Gm /EHsc /RTC1 /MDd /GS /fp:precise /Zc:wchar_t /Zc:forScope /Zc:inline /Fo"DEBUG\\" /Fd"DEBUG\VC141.PDB" /Gd /TP /analyze- C:\USERS\100458273\DOCUMENTS\DISCOVERENGINE\DISCOVERYENGINE\DISCOVERYENGINE\MESHLINE.CPP
^C:\USERS\100458273\DOCUMENTS\DISCOVERENGINE\DISCOVERYENGINE\DISCOVERYENGINE\MODEL.CPP
/c /ZI /nologo /W3 /WX- /diagnostics:classic /sdl /Od /Oy- /D _CRT_SECURE_NO_WARNINGS /D _MBCS /Gm /EHsc /RTC1 /MDd /GS /fp:precise /Zc:wchar_t /Zc:forScope /Zc:inline /Fo"DEBUG\\" /Fd"DEBUG\VC141.PDB" /Gd /TP /analyze- C:\USERS\100458273\DOCUMENTS\DISCOVERENGINE\DISCOVERYENGINE\DISCOVERYENGINE\MODEL.CPP
^C:\USERS\100458273\DOCUMENTS\DISCOVERENGINE\DISCOVERYENGINE\DISCOVERYENGINE\SHADER.CPP
/c /ZI /nologo /W3 /WX- /diagnostics:classic /sdl /Od /Oy- /D _CRT_SECURE_NO_WARNINGS /D _MBCS /Gm /EHsc /RTC1 /MDd /GS /fp:precise /Zc:wchar_t /Zc:forScope /Zc:inline /Fo"DEBUG\\" /Fd"DEBUG\VC141.PDB" /Gd /TP /analyze- C:\USERS\100458273\DOCUMENTS\DISCOVERENGINE\DISCOVERYENGINE\DISCOVERYENGINE\SHADER.CPP
^C:\USERS\100458273\DOCUMENTS\DISCOVERENGINE\DISCOVERYENGINE\DISCOVERYENGINE\SKINNEDMESH.CPP
/c /ZI /nologo /W3 /WX- /diagnostics:classic /sdl /Od /Oy- /D _CRT_SECURE_NO_WARNINGS /D _MBCS /Gm /EHsc /RTC1 /MDd /GS /fp:precise /Zc:wchar_t /Zc:forScope /Zc:inline /Fo"DEBUG\\" /Fd"DEBUG\VC141.PDB" /Gd /TP /analyze- C:\USERS\100458273\DOCUMENTS\DISCOVERENGINE\DISCOVERYENGINE\DISCOVERYENGINE\SKINNEDMESH.CPP
^C:\USERS\100458273\DOCUMENTS\DISCOVERENGINE\DISCOVERYENGINE\DISCOVERYENGINE\TEXTURE.CPP
/c /ZI /nologo /W3 /WX- /diagnostics:classic /sdl /Od /Oy- /D _CRT_SECURE_NO_WARNINGS /D _MBCS /Gm /EHsc /RTC1 /MDd /GS /fp:precise /Zc:wchar_t /Zc:forScope /Zc:inline /Fo"DEBUG\\" /Fd"DEBUG\VC141.PDB" /Gd /TP /analyze- C:\USERS\100458273\DOCUMENTS\DISCOVERENGINE\DISCOVERYENGINE\DISCOVERYENGINE\TEXTURE.CPP
^C:\USERS\100458273\DOCUMENTS\DISCOVERENGINE\DISCOVERYENGINE\DISCOVERYENGINE\WINDOW.CPP
/c /ZI /nologo /W3 /WX- /diagnostics:classic /sdl /Od /Oy- /D _CRT_SECURE_NO_WARNINGS /D _MBCS /Gm /EHsc /RTC1 /MDd /GS /fp:precise /Zc:wchar_t /Zc:forScope /Zc:inline /Fo"DEBUG\\" /Fd"DEBUG\VC141.PDB" /Gd /TP /analyze- C:\USERS\100458273\DOCUMENTS\DISCOVERENGINE\DISCOVERYENGINE\DISCOVERYENGINE\WINDOW.CPP
^C:\USERS\100458273\DOCUMENTS\DISCOVERENGINE\DISCOVERYENGINE\DISCOVERYENGINE\GLAD.C
/c /ZI /nologo /W3 /WX- /diagnostics:classic /sdl /Od /Oy- /D _CRT_SECURE_NO_WARNINGS /D _MBCS /Gm /EHsc /RTC1 /MDd /GS /fp:precise /Zc:wchar_t /Zc:forScope /Zc:inline /Fo"DEBUG\\" /Fd"DEBUG\VC141.PDB" /Gd /TC /analyze- C:\USERS\100458273\DOCUMENTS\DISCOVERENGINE\DISCOVERYENGINE\DISCOVERYENGINE\GLAD.C
^C:\USERS\STEPHEN\DOCUMENTS\DISCOVERENGINE\DISCOVERYENGINE\DISCOVERYENGINE\ANIMATIONMATH.CPP
/c /ZI /nologo /W3 /WX- /diagnostics:classic /sdl /Od /Oy- /D _CRT_SECURE_NO_WARNINGS /D _MBCS /Gm /EHsc /RTC1 /MDd /GS /fp:precise /Zc:wchar_t /Zc:forScope /Zc:inline /Fo"DEBUG\\" /Fd"DEBUG\VC141.PDB" /Gd /TP /analyze- C:\USERS\STEPHEN\DOCUMENTS\DISCOVERENGINE\DISCOVERYENGINE\DISCOVERYENGINE\ANIMATIONMATH.CPP
^C:\USERS\STEPHEN\DOCUMENTS\DISCOVERENGINE\DISCOVERYENGINE\DISCOVERYENGINE\AUDIOMANAGER.CPP
/c /ZI /nologo /W3 /WX- /diagnostics:classic /sdl /Od /Oy- /D _CRT_SECURE_NO_WARNINGS /D _MBCS /Gm /EHsc /RTC1 /MDd /GS /fp:precise /Zc:wchar_t /Zc:forScope /Zc:inline /Fo"DEBUG\\" /Fd"DEBUG\VC141.PDB" /Gd /TP /analyze- C:\USERS\STEPHEN\DOCUMENTS\DISCOVERENGINE\DISCOVERYENGINE\DISCOVERYENGINE\AUDIOMANAGER.CPP
^C:\USERS\STEPHEN\DOCUMENTS\DISCOVERENGINE\DISCOVERYENGINE\DISCOVERYENGINE\AUDIOSYSTEM.CPP
/c /ZI /nologo /W3 /WX- /diagnostics:classic /sdl /Od /Oy- /D _CRT_SECURE_NO_WARNINGS /D _MBCS /Gm /EHsc /RTC1 /MDd /GS /fp:precise /Zc:wchar_t /Zc:forScope /Zc:inline /Fo"DEBUG\\" /Fd"DEBUG\VC141.PDB" /Gd /TP /analyze- C:\USERS\STEPHEN\DOCUMENTS\DISCOVERENGINE\DISCOVERYENGINE\DISCOVERYENGINE\AUDIOSYSTEM.CPP
^C:\USERS\STEPHEN\DOCUMENTS\DISCOVERENGINE\DISCOVERYENGINE\DISCOVERYENGINE\BLENDEDGAMEOBJECT.CPP
/c /ZI /nologo /W3 /WX- /diagnostics:classic /sdl /Od /Oy- /D _CRT_SECURE_NO_WARNINGS /D _MBCS /Gm /EHsc /RTC1 /MDd /GS /fp:precise /Zc:wchar_t /Zc:forScope /Zc:inline /Fo"DEBUG\\" /Fd"DEBUG\VC141.PDB" /Gd /TP /analyze- C:\USERS\STEPHEN\DOCUMENTS\DISCOVERENGINE\DISCOVERYENGINE\DISCOVERYENGINE\BLENDEDGAMEOBJECT.CPP
^C:\USERS\STEPHEN\DOCUMENTS\DISCOVERENGINE\DISCOVERYENGINE\DISCOVERYENGINE\BONE.CPP
/c /ZI /nologo /W3 /WX- /diagnostics:classic /sdl /Od /Oy- /D _CRT_SECURE_NO_WARNINGS /D _MBCS /Gm /EHsc /RTC1 /MDd /GS /fp:precise /Zc:wchar_t /Zc:forScope /Zc:inline /Fo"DEBUG\\" /Fd"DEBUG\VC141.PDB" /Gd /TP /analyze- C:\USERS\STEPHEN\DOCUMENTS\DISCOVERENGINE\DISCOVERYENGINE\DISCOVERYENGINE\BONE.CPP
^C:\USERS\STEPHEN\DOCUMENTS\DISCOVERENGINE\DISCOVERYENGINE\DISCOVERYENGINE\CAMERA.CPP
/c /ZI /nologo /W3 /WX- /diagnostics:classic /sdl /Od /Oy- /D _CRT_SECURE_NO_WARNINGS /D _MBCS /Gm /EHsc /RTC1 /MDd /GS /fp:precise /Zc:wchar_t /Zc:forScope /Zc:inline /Fo"DEBUG\\" /Fd"DEBUG\VC141.PDB" /Gd /TP /analyze- C:\USERS\STEPHEN\DOCUMENTS\DISCOVERENGINE\DISCOVERYENGINE\DISCOVERYENGINE\CAMERA.CPP
^C:\USERS\STEPHEN\DOCUMENTS\DISCOVERENGINE\DISCOVERYENGINE\DISCOVERYENGINE\COMMON.CPP
/c /ZI /nologo /W3 /WX- /diagnostics:classic /sdl /Od /Oy- /D _CRT_SECURE_NO_WARNINGS /D _MBCS /Gm /EHsc /RTC1 /MDd /GS /fp:precise /Zc:wchar_t /Zc:forScope /Zc:inline /Fo"DEBUG\\" /Fd"DEBUG\VC141.PDB" /Gd /TP /analyze- C:\USERS\STEPHEN\DOCUMENTS\DISCOVERENGINE\DISCOVERYENGINE\DISCOVERYENGINE\COMMON.CPP
^C:\USERS\STEPHEN\DOCUMENTS\DISCOVERENGINE\DISCOVERYENGINE\DISCOVERYENGINE\COMMON_PLATFORM.CPP
/c /ZI /nologo /W3 /WX- /diagnostics:classic /sdl /Od /Oy- /D _CRT_SECURE_NO_WARNINGS /D _MBCS /Gm /EHsc /RTC1 /MDd /GS /fp:precise /Zc:wchar_t /Zc:forScope /Zc:inline /Fo"DEBUG\\" /Fd"DEBUG\VC141.PDB" /Gd /TP /analyze- C:\USERS\STEPHEN\DOCUMENTS\DISCOVERENGINE\DISCOVERYENGINE\DISCOVERYENGINE\COMMON_PLATFORM.CPP
^C:\USERS\STEPHEN\DOCUMENTS\DISCOVERENGINE\DISCOVERYENGINE\DISCOVERYENGINE\FRAMEBUFFER.CPP
/c /ZI /nologo /W3 /WX- /diagnostics:classic /sdl /Od /Oy- /D _CRT_SECURE_NO_WARNINGS /D _MBCS /Gm /EHsc /RTC1 /MDd /GS /fp:precise /Zc:wchar_t /Zc:forScope /Zc:inline /Fo"DEBUG\\" /Fd"DEBUG\VC141.PDB" /Gd /TP /analyze- C:\USERS\STEPHEN\DOCUMENTS\DISCOVERENGINE\DISCOVERYENGINE\DISCOVERYENGINE\FRAMEBUFFER.CPP
^C:\USERS\STEPHEN\DOCUMENTS\DISCOVERENGINE\DISCOVERYENGINE\DISCOVERYENGINE\GAMEOBJECT.CPP
/c /ZI /nologo /W3 /WX- /diagnostics:classic /sdl /Od /Oy- /D _CRT_SECURE_NO_WARNINGS /D _MBCS /Gm /EHsc /RTC1 /MDd /GS /fp:precise /Zc:wchar_t /Zc:forScope /Zc:inline /Fo"DEBUG\\" /Fd"DEBUG\VC141.PDB" /Gd /TP /analyze- C:\USERS\STEPHEN\DOCUMENTS\DISCOVERENGINE\DISCOVERYENGINE\DISCOVERYENGINE\GAMEOBJECT.CPP
^C:\USERS\STEPHEN\DOCUMENTS\DISCOVERENGINE\DISCOVERYENGINE\DISCOVERYENGINE\GBUFFER.CPP
/c /ZI /nologo /W3 /WX- /diagnostics:classic /sdl /Od /Oy- /D _CRT_SECURE_NO_WARNINGS /D _MBCS /Gm /EHsc /RTC1 /MDd /GS /fp:precise /Zc:wchar_t /Zc:forScope /Zc:inline /Fo"DEBUG\\" /Fd"DEBUG\VC141.PDB" /Gd /TP /analyze- C:\USERS\STEPHEN\DOCUMENTS\DISCOVERENGINE\DISCOVERYENGINE\DISCOVERYENGINE\GBUFFER.CPP
^C:\USERS\STEPHEN\DOCUMENTS\DISCOVERENGINE\DISCOVERYENGINE\DISCOVERYENGINE\KEYFRAMECONTROLLER.CPP
/c /ZI /nologo /W3 /WX- /diagnostics:classic /sdl /Od /Oy- /D _CRT_SECURE_NO_WARNINGS /D _MBCS /Gm /EHsc /RTC1 /MDd /GS /fp:precise /Zc:wchar_t /Zc:forScope /Zc:inline /Fo"DEBUG\\" /Fd"DEBUG\VC141.PDB" /Gd /TP /analyze- C:\USERS\STEPHEN\DOCUMENTS\DISCOVERENGINE\DISCOVERYENGINE\DISCOVERYENGINE\KEYFRAMECONTROLLER.CPP
^C:\USERS\STEPHEN\DOCUMENTS\DISCOVERENGINE\DISCOVERYENGINE\DISCOVERYENGINE\LIGHT.CPP
/c /ZI /nologo /W3 /WX- /diagnostics:classic /sdl /Od /Oy- /D _CRT_SECURE_NO_WARNINGS /D _MBCS /Gm /EHsc /RTC1 /MDd /GS /fp:precise /Zc:wchar_t /Zc:forScope /Zc:inline /Fo"DEBUG\\" /Fd"DEBUG\VC141.PDB" /Gd /TP /analyze- C:\USERS\STEPHEN\DOCUMENTS\DISCOVERENGINE\DISCOVERYENGINE\DISCOVERYENGINE\LIGHT.CPP
^C:\USERS\STEPHEN\DOCUMENTS\DISCOVERENGINE\DISCOVERYENGINE\DISCOVERYENGINE\MAIN.CPP
/c /ZI /nologo /W3 /WX- /diagnostics:classic /sdl /Od /Oy- /D _CRT_SECURE_NO_WARNINGS /D _MBCS /Gm /EHsc /RTC1 /MDd /GS /fp:precise /Zc:wchar_t /Zc:forScope /Zc:inline /Fo"DEBUG\\" /Fd"DEBUG\VC141.PDB" /Gd /TP /analyze- C:\USERS\STEPHEN\DOCUMENTS\DISCOVERENGINE\DISCOVERYENGINE\DISCOVERYENGINE\MAIN.CPP
^C:\USERS\STEPHEN\DOCUMENTS\DISCOVERENGINE\DISCOVERYENGINE\DISCOVERYENGINE\MAINMUSIC.CPP
/c /ZI /nologo /W3 /WX- /diagnostics:classic /sdl /Od /Oy- /D _CRT_SECURE_NO_WARNINGS /D _MBCS /Gm /EHsc /RTC1 /MDd /GS /fp:precise /Zc:wchar_t /Zc:forScope /Zc:inline /Fo"DEBUG\\" /Fd"DEBUG\VC141.PDB" /Gd /TP /analyze- C:\USERS\STEPHEN\DOCUMENTS\DISCOVERENGINE\DISCOVERYENGINE\DISCOVERYENGINE\MAINMUSIC.CPP
^C:\USERS\STEPHEN\DOCUMENTS\DISCOVERENGINE\DISCOVERYENGINE\DISCOVERYENGINE\MENUSTATE.CPP
/c /ZI /nologo /W3 /WX- /diagnostics:classic /sdl /Od /Oy- /D _CRT_SECURE_NO_WARNINGS /D _MBCS /Gm /EHsc /RTC1 /MDd /GS /fp:precise /Zc:wchar_t /Zc:forScope /Zc:inline /Fo"DEBUG\\" /Fd"DEBUG\VC141.PDB" /Gd /TP /analyze- C:\USERS\STEPHEN\DOCUMENTS\DISCOVERENGINE\DISCOVERYENGINE\DISCOVERYENGINE\MENUSTATE.CPP
^C:\USERS\STEPHEN\DOCUMENTS\DISCOVERENGINE\DISCOVERYENGINE\DISCOVERYENGINE\MESH.CPP
/c /ZI /nologo /W3 /WX- /diagnostics:classic /sdl /Od /Oy- /D _CRT_SECURE_NO_WARNINGS /D _MBCS /Gm /EHsc /RTC1 /MDd /GS /fp:precise /Zc:wchar_t /Zc:forScope /Zc:inline /Fo"DEBUG\\" /Fd"DEBUG\VC141.PDB" /Gd /TP /analyze- C:\USERS\STEPHEN\DOCUMENTS\DISCOVERENGINE\DISCOVERYENGINE\DISCOVERYENGINE\MESH.CPP
^C:\USERS\STEPHEN\DOCUMENTS\DISCOVERENGINE\DISCOVERYENGINE\DISCOVERYENGINE\MESHLINE.CPP
/c /ZI /nologo /W3 /WX- /diagnostics:classic /sdl /Od /Oy- /D _CRT_SECURE_NO_WARNINGS /D _MBCS /Gm /EHsc /RTC1 /MDd /GS /fp:precise /Zc:wchar_t /Zc:forScope /Zc:inline /Fo"DEBUG\\" /Fd"DEBUG\VC141.PDB" /Gd /TP /analyze- C:\USERS\STEPHEN\DOCUMENTS\DISCOVERENGINE\DISCOVERYENGINE\DISCOVERYENGINE\MESHLINE.CPP
^C:\USERS\STEPHEN\DOCUMENTS\DISCOVERENGINE\DISCOVERYENGINE\DISCOVERYENGINE\MODEL.CPP
/c /ZI /nologo /W3 /WX- /diagnostics:classic /sdl /Od /Oy- /D _CRT_SECURE_NO_WARNINGS /D _MBCS /Gm /EHsc /RTC1 /MDd /GS /fp:precise /Zc:wchar_t /Zc:forScope /Zc:inline /Fo"DEBUG\\" /Fd"DEBUG\VC141.PDB" /Gd /TP /analyze- C:\USERS\STEPHEN\DOCUMENTS\DISCOVERENGINE\DISCOVERYENGINE\DISCOVERYENGINE\MODEL.CPP
^C:\USERS\STEPHEN\DOCUMENTS\DISCOVERENGINE\DISCOVERYENGINE\DISCOVERYENGINE\SHADER.CPP
/c /ZI /nologo /W3 /WX- /diagnostics:classic /sdl /Od /Oy- /D _CRT_SECURE_NO_WARNINGS /D _MBCS /Gm /EHsc /RTC1 /MDd /GS /fp:precise /Zc:wchar_t /Zc:forScope /Zc:inline /Fo"DEBUG\\" /Fd"DEBUG\VC141.PDB" /Gd /TP /analyze- C:\USERS\STEPHEN\DOCUMENTS\DISCOVERENGINE\DISCOVERYENGINE\DISCOVERYENGINE\SHADER.CPP
^C:\USERS\STEPHEN\DOCUMENTS\DISCOVERENGINE\DISCOVERYENGINE\DISCOVERYENGINE\SKINNEDMESH.CPP
/c /ZI /nologo /W3 /WX- /diagnostics:classic /sdl /Od /Oy- /D _CRT_SECURE_NO_WARNINGS /D _MBCS /Gm /EHsc /RTC1 /MDd /GS /fp:precise /Zc:wchar_t /Zc:forScope /Zc:inline /Fo"DEBUG\\" /Fd"DEBUG\VC141.PDB" /Gd /TP /analyze- C:\USERS\STEPHEN\DOCUMENTS\DISCOVERENGINE\DISCOVERYENGINE\DISCOVERYENGINE\SKINNEDMESH.CPP
^C:\USERS\STEPHEN\DOCUMENTS\DISCOVERENGINE\DISCOVERYENGINE\DISCOVERYENGINE\TEXTURE.CPP
/c /ZI /nologo /W3 /WX- /diagnostics:classic /sdl /Od /Oy- /D _CRT_SECURE_NO_WARNINGS /D _MBCS /Gm /EHsc /RTC1 /MDd /GS /fp:precise /Zc:wchar_t /Zc:forScope /Zc:inline /Fo"DEBUG\\" /Fd"DEBUG\VC141.PDB" /Gd /TP /analyze- C:\USERS\STEPHEN\DOCUMENTS\DISCOVERENGINE\DISCOVERYENGINE\DISCOVERYENGINE\TEXTURE.CPP
^C:\USERS\STEPHEN\DOCUMENTS\DISCOVERENGINE\DISCOVERYENGINE\DISCOVERYENGINE\WINDOW.CPP
/c /ZI /nologo /W3 /WX- /diagnostics:classic /sdl /Od /Oy- /D _CRT_SECURE_NO_WARNINGS /D _MBCS /Gm /EHsc /RTC1 /MDd /GS /fp:precise /Zc:wchar_t /Zc:forScope /Zc:inline /Fo"DEBUG\\" /Fd"DEBUG\VC141.PDB" /Gd /TP /analyze- C:\USERS\STEPHEN\DOCUMENTS\DISCOVERENGINE\DISCOVERYENGINE\DISCOVERYENGINE\WINDOW.CPP
^C:\USERS\STEPHEN\DOCUMENTS\DISCOVERENGINE\DISCOVERYENGINE\DISCOVERYENGINE\GLAD.C
/c /ZI /nologo /W3 /WX- /diagnostics:classic /sdl /Od /Oy- /D _CRT_SECURE_NO_WARNINGS /D _MBCS /Gm /EHsc /RTC1 /MDd /GS /fp:precise /Zc:wchar_t /Zc:forScope /Zc:inline /Fo"DEBUG\\" /Fd"DEBUG\VC141.PDB" /Gd /TC /analyze- C:\USERS\STEPHEN\DOCUMENTS\DISCOVERENGINE\DISCOVERYENGINE\DISCOVERYENGINE\GLAD.C
