# Blender v2.79 (sub 0) OBJ File: ''
# www.blender.org
v 0.437500 0.164062 5.392868
v -0.437500 0.164062 5.392868
v 0.500000 0.093750 5.314743
v -0.500000 0.093750 5.314743
v 0.546875 0.054688 5.205368
v -0.546875 0.054688 5.205368
v 0.351562 -0.023438 5.244430
v -0.351562 -0.023438 5.244430
v 0.351562 0.031250 5.345993
v -0.351562 0.031250 5.345993
v 0.351562 0.132812 5.408493
v -0.351562 0.132812 5.408493
v 0.273438 0.164062 5.424118
v -0.273438 0.164062 5.424118
v 0.203125 0.093750 5.369430
v -0.203125 0.093750 5.369430
v 0.156250 0.054688 5.275680
v -0.156250 0.054688 5.275680
v 0.078125 0.242188 5.283493
v -0.078125 0.242188 5.283493
v 0.140625 0.242188 5.369430
v -0.140625 0.242188 5.369430
v 0.242188 0.242188 5.424118
v -0.242188 0.242188 5.424118
v 0.273438 0.328125 5.424118
v -0.273438 0.328125 5.424118
v 0.203125 0.390625 5.369430
v -0.203125 0.390625 5.369430
v 0.156250 0.437500 5.275680
v -0.156250 0.437500 5.275680
v 0.351562 0.515625 5.244430
v -0.351562 0.515625 5.244430
v 0.351562 0.453125 5.345993
v -0.351562 0.453125 5.345993
v 0.351562 0.359375 5.408493
v -0.351562 0.359375 5.408493
v 0.437500 0.328125 5.392868
v -0.437500 0.328125 5.392868
v 0.500000 0.390625 5.314743
v -0.500000 0.390625 5.314743
v 0.546875 0.437500 5.205368
v -0.546875 0.437500 5.205368
v 0.625000 0.242188 5.189743
v -0.625000 0.242188 5.189743
v 0.562500 0.242188 5.299118
v -0.562500 0.242188 5.299118
v 0.468750 0.242188 5.385055
v -0.468750 0.242188 5.385055
v 0.476562 0.242188 5.400680
v -0.476562 0.242188 5.400680
v 0.445312 0.335938 5.408493
v -0.445312 0.335938 5.408493
v 0.351562 0.375000 5.431930
v -0.351562 0.375000 5.431930
v 0.265625 0.335938 5.447555
v -0.265625 0.335938 5.447555
v 0.226562 0.242188 5.447555
v -0.226562 0.242188 5.447555
v 0.265625 0.156250 5.447555
v -0.265625 0.156250 5.447555
v 0.351562 0.242188 5.455368
v -0.351562 0.242188 5.455368
v 0.351562 0.117188 5.431930
v -0.351562 0.117188 5.431930
v 0.445312 0.156250 5.408493
v -0.445312 0.156250 5.408493
v 0.000000 0.429688 5.369430
v 0.000000 0.351562 5.447555
v 0.000000 -0.679688 5.361618
v 0.000000 -0.320312 5.408493
v 0.000000 -0.187500 5.424118
v 0.000000 -0.773438 5.345993
v 0.000000 0.406250 5.228805
v 0.000000 0.570312 5.197555
v 0.000000 0.898438 4.080368
v 0.000000 0.562500 3.775680
v 0.000000 0.070312 3.799118
v 0.000000 -0.382812 4.275680
v 0.203125 -0.187500 5.189743
v -0.203125 -0.187500 5.189743
v 0.312500 -0.437500 5.197555
v -0.312500 -0.437500 5.197555
v 0.351562 -0.695312 5.197555
v -0.351562 -0.695312 5.197555
v 0.367188 -0.890625 5.158493
v -0.367188 -0.890625 5.158493
v 0.328125 -0.945312 5.150680
v -0.328125 -0.945312 5.150680
v 0.179688 -0.968750 5.181930
v -0.179688 -0.968750 5.181930
v 0.000000 -0.984375 5.205368
v 0.437500 -0.140625 5.158493
v -0.437500 -0.140625 5.158493
v 0.632812 -0.039062 5.166305
v -0.632812 -0.039062 5.166305
v 0.828125 0.148438 5.072555
v -0.828125 0.148438 5.072555
v 0.859375 0.429688 5.220993
v -0.859375 0.429688 5.220993
v 0.710938 0.484375 5.252243
v -0.710938 0.484375 5.252243
v 0.492188 0.601562 5.314743
v -0.492188 0.601562 5.314743
v 0.320312 0.757812 5.361618
v -0.320312 0.757812 5.361618
v 0.156250 0.718750 5.385055
v -0.156250 0.718750 5.385055
v 0.062500 0.492188 5.377243
v -0.062500 0.492188 5.377243
v 0.164062 0.414062 5.400680
v -0.164062 0.414062 5.400680
v 0.125000 0.304688 5.392868
v -0.125000 0.304688 5.392868
v 0.203125 0.093750 5.369430
v -0.203125 0.093750 5.369430
v 0.375000 0.015625 5.330368
v -0.375000 0.015625 5.330368
v 0.492188 0.062500 5.299118
v -0.492188 0.062500 5.299118
v 0.625000 0.187500 5.275680
v -0.625000 0.187500 5.275680
v 0.640625 0.296875 5.275680
v -0.640625 0.296875 5.275680
v 0.601562 0.375000 5.291305
v -0.601562 0.375000 5.291305
v 0.429688 0.437500 5.345993
v -0.429688 0.437500 5.345993
v 0.250000 0.468750 5.385055
v -0.250000 0.468750 5.385055
v 0.000000 -0.765625 5.361618
v 0.109375 -0.718750 5.361618
v -0.109375 -0.718750 5.361618
v 0.117188 -0.835938 5.338180
v -0.117188 -0.835938 5.338180
v 0.062500 -0.882812 5.322555
v -0.062500 -0.882812 5.322555
v 0.000000 -0.890625 5.314743
v 0.000000 -0.195312 5.377243
v 0.000000 -0.140625 5.369430
v 0.101562 -0.148438 5.369430
v -0.101562 -0.148438 5.369430
v 0.125000 -0.226562 5.377243
v -0.125000 -0.226562 5.377243
v 0.085938 -0.289062 5.369430
v -0.085938 -0.289062 5.369430
v 0.398438 -0.046875 5.299118
v -0.398438 -0.046875 5.299118
v 0.617188 0.054688 5.252243
v -0.617188 0.054688 5.252243
v 0.726562 0.203125 5.228805
v -0.726562 0.203125 5.228805
v 0.742188 0.375000 5.283493
v -0.742188 0.375000 5.283493
v 0.687500 0.414062 5.353805
v -0.687500 0.414062 5.353805
v 0.437500 0.546875 5.424118
v -0.437500 0.546875 5.424118
v 0.312500 0.640625 5.463180
v -0.312500 0.640625 5.463180
v 0.203125 0.617188 5.478805
v -0.203125 0.617188 5.478805
v 0.101562 0.429688 5.470993
v -0.101562 0.429688 5.470993
v 0.125000 -0.101562 5.439743
v -0.125000 -0.101562 5.439743
v 0.210938 -0.445312 5.338180
v -0.210938 -0.445312 5.338180
v 0.250000 -0.703125 5.314743
v -0.250000 -0.703125 5.314743
v 0.265625 -0.820312 5.291305
v -0.265625 -0.820312 5.291305
v 0.234375 -0.914062 5.260055
v -0.234375 -0.914062 5.260055
v 0.164062 -0.929688 5.260055
v -0.164062 -0.929688 5.260055
v 0.000000 -0.945312 5.267868
v 0.000000 0.046875 5.353805
v 0.000000 0.210938 5.392868
v 0.328125 0.476562 5.369430
v -0.328125 0.476562 5.369430
v 0.164062 0.140625 5.377243
v -0.164062 0.140625 5.377243
v 0.132812 0.210938 5.385055
v -0.132812 0.210938 5.385055
v 0.117188 -0.687500 5.361618
v -0.117188 -0.687500 5.361618
v 0.078125 -0.445312 5.377243
v -0.078125 -0.445312 5.377243
v 0.000000 -0.445312 5.377243
v 0.000000 -0.328125 5.369430
v 0.093750 -0.273438 5.408493
v -0.093750 -0.273438 5.408493
v 0.132812 -0.226562 5.424118
v -0.132812 -0.226562 5.424118
v 0.109375 -0.132812 5.408493
v -0.109375 -0.132812 5.408493
v 0.039062 -0.125000 5.408493
v -0.039062 -0.125000 5.408493
v 0.000000 -0.203125 5.455368
v 0.046875 -0.148438 5.439743
v -0.046875 -0.148438 5.439743
v 0.093750 -0.156250 5.439743
v -0.093750 -0.156250 5.439743
v 0.109375 -0.226562 5.455368
v -0.109375 -0.226562 5.455368
v 0.078125 -0.250000 5.431930
v -0.078125 -0.250000 5.431930
v 0.000000 -0.289062 5.431930
v 0.257812 -0.312500 5.181930
v -0.257812 -0.312500 5.181930
v 0.164062 -0.242188 5.338180
v -0.164062 -0.242188 5.338180
v 0.179688 -0.312500 5.338180
v -0.179688 -0.312500 5.338180
v 0.234375 -0.250000 5.181930
v -0.234375 -0.250000 5.181930
v 0.000000 -0.875000 5.314743
v 0.046875 -0.867188 5.314743
v -0.046875 -0.867188 5.314743
v 0.093750 -0.820312 5.338180
v -0.093750 -0.820312 5.338180
v 0.093750 -0.742188 5.353805
v -0.093750 -0.742188 5.353805
v 0.000000 -0.781250 5.283493
v 0.093750 -0.750000 5.291305
v -0.093750 -0.750000 5.291305
v 0.093750 -0.812500 5.267868
v -0.093750 -0.812500 5.267868
v 0.046875 -0.851562 5.260055
v -0.046875 -0.851562 5.260055
v 0.000000 -0.859375 5.260055
v 0.171875 0.218750 5.408493
v -0.171875 0.218750 5.408493
v 0.187500 0.156250 5.400680
v -0.187500 0.156250 5.400680
v 0.335938 0.429688 5.385055
v -0.335938 0.429688 5.385055
v 0.273438 0.421875 5.400680
v -0.273438 0.421875 5.400680
v 0.421875 0.398438 5.400680
v -0.421875 0.398438 5.400680
v 0.562500 0.351562 5.322555
v -0.562500 0.351562 5.322555
v 0.585938 0.289062 5.314743
v -0.585938 0.289062 5.314743
v 0.578125 0.195312 5.306930
v -0.578125 0.195312 5.306930
v 0.476562 0.101562 5.345993
v -0.476562 0.101562 5.345993
v 0.375000 0.062500 5.369430
v -0.375000 0.062500 5.369430
v 0.226562 0.109375 5.408493
v -0.226562 0.109375 5.408493
v 0.179688 0.296875 5.408493
v -0.179688 0.296875 5.408493
v 0.210938 0.375000 5.408493
v -0.210938 0.375000 5.408493
v 0.234375 0.359375 5.385055
v -0.234375 0.359375 5.385055
v 0.195312 0.296875 5.385055
v -0.195312 0.296875 5.385055
v 0.242188 0.125000 5.385055
v -0.242188 0.125000 5.385055
v 0.375000 0.085938 5.353805
v -0.375000 0.085938 5.353805
v 0.460938 0.117188 5.330368
v -0.460938 0.117188 5.330368
v 0.546875 0.210938 5.299118
v -0.546875 0.210938 5.299118
v 0.554688 0.281250 5.299118
v -0.554688 0.281250 5.299118
v 0.531250 0.335938 5.306930
v -0.531250 0.335938 5.306930
v 0.414062 0.390625 5.377243
v -0.414062 0.390625 5.377243
v 0.281250 0.398438 5.392868
v -0.281250 0.398438 5.392868
v 0.335938 0.406250 5.377243
v -0.335938 0.406250 5.377243
v 0.203125 0.171875 5.377243
v -0.203125 0.171875 5.377243
v 0.195312 0.226562 5.377243
v -0.195312 0.226562 5.377243
v 0.109375 0.460938 5.236618
v -0.109375 0.460938 5.236618
v 0.195312 0.664062 5.244430
v -0.195312 0.664062 5.244430
v 0.335938 0.687500 5.220993
v -0.335938 0.687500 5.220993
v 0.484375 0.554688 5.181930
v -0.484375 0.554688 5.181930
v 0.679688 0.453125 5.119430
v -0.679688 0.453125 5.119430
v 0.796875 0.406250 5.088180
v -0.796875 0.406250 5.088180
v 0.773438 0.164062 5.002243
v -0.773438 0.164062 5.002243
v 0.601562 0.000000 5.041305
v -0.601562 0.000000 5.041305
v 0.437500 -0.093750 5.095993
v -0.437500 -0.093750 5.095993
v 0.000000 0.898438 4.916305
v 0.000000 0.984375 4.549118
v 0.000000 -0.195312 3.955368
v 0.000000 -0.460938 4.814743
v 0.000000 -0.976562 5.088180
v 0.000000 -0.804688 4.970993
v 0.000000 -0.570312 4.947555
v 0.000000 -0.484375 4.908493
v 0.851562 0.234375 4.681930
v -0.851562 0.234375 4.681930
v 0.859375 0.320312 4.580368
v -0.859375 0.320312 4.580368
v 0.773438 0.265625 4.189743
v -0.773438 0.265625 4.189743
v 0.460938 0.437500 3.924118
v -0.460938 0.437500 3.924118
v 0.734375 -0.046875 4.697555
v -0.734375 -0.046875 4.697555
v 0.593750 -0.125000 4.463180
v -0.593750 -0.125000 4.463180
v 0.640625 -0.007812 4.197555
v -0.640625 -0.007812 4.197555
v 0.335938 0.054688 3.963180
v -0.335938 0.054688 3.963180
v 0.234375 -0.351562 5.033493
v -0.234375 -0.351562 5.033493
v 0.179688 -0.414062 4.885055
v -0.179688 -0.414062 4.885055
v 0.289062 -0.710938 5.010055
v -0.289062 -0.710938 5.010055
v 0.250000 -0.500000 5.017868
v -0.250000 -0.500000 5.017868
v 0.328125 -0.914062 5.025680
v -0.328125 -0.914062 5.025680
v 0.140625 -0.757812 4.994430
v -0.140625 -0.757812 4.994430
v 0.125000 -0.539062 4.986618
v -0.125000 -0.539062 4.986618
v 0.164062 -0.945312 5.064743
v -0.164062 -0.945312 5.064743
v 0.218750 -0.281250 5.056930
v -0.218750 -0.281250 5.056930
v 0.210938 -0.226562 5.095993
v -0.210938 -0.226562 5.095993
v 0.203125 -0.171875 5.127243
v -0.203125 -0.171875 5.127243
v 0.210938 -0.390625 4.791305
v -0.210938 -0.390625 4.791305
v 0.296875 -0.312500 4.361618
v -0.296875 -0.312500 4.361618
v 0.343750 -0.148438 4.088180
v -0.343750 -0.148438 4.088180
v 0.453125 0.867188 4.244430
v -0.453125 0.867188 4.244430
v 0.453125 0.929688 4.556930
v -0.453125 0.929688 4.556930
v 0.453125 0.851562 4.861618
v -0.453125 0.851562 4.861618
v 0.460938 0.523438 5.056930
v -0.460938 0.523438 5.056930
v 0.726562 0.406250 4.963180
v -0.726562 0.406250 4.963180
v 0.632812 0.453125 4.908493
v -0.632812 0.453125 4.908493
v 0.640625 0.703125 4.681930
v -0.640625 0.703125 4.681930
v 0.796875 0.562500 4.752243
v -0.796875 0.562500 4.752243
v 0.796875 0.617188 4.510055
v -0.796875 0.617188 4.510055
v 0.640625 0.750000 4.431930
v -0.640625 0.750000 4.431930
v 0.640625 0.679688 4.181930
v -0.640625 0.679688 4.181930
v 0.796875 0.539062 4.267868
v -0.796875 0.539062 4.267868
v 0.617188 0.328125 4.041305
v -0.617188 0.328125 4.041305
v 0.484375 0.023438 4.080368
v -0.484375 0.023438 4.080368
v 0.820312 0.328125 4.424118
v -0.820312 0.328125 4.424118
v 0.406250 -0.171875 4.775680
v -0.406250 -0.171875 4.775680
v 0.429688 -0.195312 4.416305
v -0.429688 -0.195312 4.416305
v 0.890625 0.406250 4.392868
v -0.890625 0.406250 4.392868
v 0.773438 -0.140625 4.502243
v -0.773438 -0.140625 4.502243
v 1.039062 -0.101562 4.299118
v -1.039062 -0.101562 4.299118
v 1.281250 0.054688 4.197555
v -1.281250 0.054688 4.197555
v 1.351562 0.320312 4.205368
v -1.351562 0.320312 4.205368
v 1.234375 0.507812 4.205368
v -1.234375 0.507812 4.205368
v 1.023438 0.476562 4.314743
v -1.023438 0.476562 4.314743
v 1.015625 0.414062 4.338180
v -1.015625 0.414062 4.338180
v 1.187500 0.437500 4.236618
v -1.187500 0.437500 4.236618
v 1.265625 0.289062 4.220993
v -1.265625 0.289062 4.220993
v 1.210938 0.078125 4.220993
v -1.210938 0.078125 4.220993
v 1.031250 -0.039062 4.322555
v -1.031250 -0.039062 4.322555
v 0.828125 -0.070312 4.494430
v -0.828125 -0.070312 4.494430
v 0.921875 0.359375 4.408493
v -0.921875 0.359375 4.408493
v 0.945312 0.304688 4.338180
v -0.945312 0.304688 4.338180
v 0.882812 -0.023438 4.416305
v -0.882812 -0.023438 4.416305
v 1.039062 0.000000 4.260055
v -1.039062 0.000000 4.260055
v 1.187500 0.093750 4.181930
v -1.187500 0.093750 4.181930
v 1.234375 0.250000 4.181930
v -1.234375 0.250000 4.181930
v 1.171875 0.359375 4.189743
v -1.171875 0.359375 4.189743
v 1.023438 0.343750 4.267868
v -1.023438 0.343750 4.267868
v 0.843750 0.289062 4.416305
v -0.843750 0.289062 4.416305
v 0.835938 0.171875 4.353805
v -0.835938 0.171875 4.353805
v 0.757812 0.093750 4.353805
v -0.757812 0.093750 4.353805
v 0.820312 0.085938 4.353805
v -0.820312 0.085938 4.353805
v 0.843750 0.015625 4.353805
v -0.843750 0.015625 4.353805
v 0.812500 -0.015625 4.353805
v -0.812500 -0.015625 4.353805
v 0.726562 0.000000 4.556930
v -0.726562 0.000000 4.556930
v 0.718750 -0.023438 4.455368
v -0.718750 -0.023438 4.455368
v 0.718750 0.039062 4.439743
v -0.718750 0.039062 4.439743
v 0.796875 0.203125 4.416305
v -0.796875 0.203125 4.416305
v 0.890625 0.242188 4.361618
v -0.890625 0.242188 4.361618
v 0.890625 0.234375 4.306930
v -0.890625 0.234375 4.306930
v 0.812500 -0.015625 4.306930
v -0.812500 -0.015625 4.306930
v 0.851562 0.015625 4.306930
v -0.851562 0.015625 4.306930
v 0.828125 0.078125 4.306930
v -0.828125 0.078125 4.306930
v 0.765625 0.093750 4.306930
v -0.765625 0.093750 4.306930
v 0.843750 0.171875 4.306930
v -0.843750 0.171875 4.306930
v 1.039062 0.328125 4.213180
v -1.039062 0.328125 4.213180
v 1.187500 0.343750 4.142868
v -1.187500 0.343750 4.142868
v 1.257812 0.242188 4.135055
v -1.257812 0.242188 4.135055
v 1.210938 0.085938 4.142868
v -1.210938 0.085938 4.142868
v 1.046875 0.000000 4.205368
v -1.046875 0.000000 4.205368
v 0.882812 -0.015625 4.361618
v -0.882812 -0.015625 4.361618
v 0.953125 0.289062 4.283493
v -0.953125 0.289062 4.283493
v 0.890625 0.109375 4.299118
v -0.890625 0.109375 4.299118
v 0.937500 0.062500 4.291305
v -0.937500 0.062500 4.291305
v 1.000000 0.125000 4.260055
v -1.000000 0.125000 4.260055
v 0.960938 0.171875 4.275680
v -0.960938 0.171875 4.275680
v 1.015625 0.234375 4.252243
v -1.015625 0.234375 4.252243
v 1.054688 0.187500 4.244430
v -1.054688 0.187500 4.244430
v 1.109375 0.210938 4.236618
v -1.109375 0.210938 4.236618
v 1.085938 0.273438 4.236618
v -1.085938 0.273438 4.236618
v 1.023438 0.437500 4.142868
v -1.023438 0.437500 4.142868
v 1.250000 0.468750 4.080368
v -1.250000 0.468750 4.080368
v 1.367188 0.296875 4.127243
v -1.367188 0.296875 4.127243
v 1.312500 0.054688 4.095993
v -1.312500 0.054688 4.095993
v 1.039062 -0.085938 4.135055
v -1.039062 -0.085938 4.135055
v 0.789062 -0.125000 4.299118
v -0.789062 -0.125000 4.299118
v 0.859375 0.382812 4.244430
v -0.859375 0.382812 4.244430
vt 0.810838 0.934649
vt 0.830308 0.934999
vt 0.839692 0.954645
vt 0.802419 0.954645
vt 0.740711 0.816177
vt 0.731327 0.835822
vt 0.711857 0.836173
vt 0.703438 0.816177
vt 0.976614 0.045949
vt 0.980230 0.080302
vt 0.954918 0.089342
vt 0.951302 0.045949
vt 0.954918 0.179432
vt 0.980230 0.170392
vt 0.976614 0.136040
vt 0.951302 0.136040
vt 0.964383 0.782706
vt 0.963351 0.817797
vt 0.986484 0.813633
vt 0.987374 0.767546
vt 0.080703 0.943241
vt 0.057571 0.939077
vt 0.058603 0.974167
vt 0.081593 0.989328
vt 0.844691 0.919476
vt 0.866354 0.928597
vt 0.767373 0.842224
vt 0.745710 0.851345
vt 0.845042 0.900006
vt 0.866354 0.891324
vt 0.767373 0.879498
vt 0.746061 0.870815
vt 0.964099 0.852567
vt 0.987374 0.859400
vt 0.081593 0.897474
vt 0.058318 0.904307
vt 0.969360 0.446858
vt 0.969360 0.481211
vt 0.989249 0.481211
vt 0.991057 0.437818
vt 0.176880 0.913968
vt 0.156992 0.913968
vt 0.156992 0.879615
vt 0.178688 0.870575
vt 0.831185 0.886325
vt 0.840306 0.864662
vt 0.741325 0.906159
vt 0.732204 0.884497
vt 0.810049 0.885272
vt 0.803033 0.864662
vt 0.704052 0.906159
vt 0.711068 0.885549
vt 0.969360 0.515563
vt 0.991057 0.526412
vt 0.178688 0.959169
vt 0.156992 0.948320
vt 0.964846 0.618141
vt 0.964099 0.583371
vt 0.987231 0.579207
vt 0.988121 0.624974
vt 0.990589 0.371948
vt 0.967456 0.367784
vt 0.968203 0.333014
vt 0.991478 0.326181
vt 0.796368 0.899129
vt 0.776371 0.890710
vt 0.677391 0.880111
vt 0.697387 0.871692
vt 0.795315 0.920265
vt 0.776371 0.927983
vt 0.677391 0.842838
vt 0.696334 0.850556
vt 0.965131 0.548280
vt 0.988121 0.533120
vt 0.991478 0.418035
vt 0.968488 0.402874
vt 0.980230 0.011597
vt 0.954918 0.000749
vt 0.980230 0.101687
vt 0.954918 0.090839
vt 0.588635 0.930835
vt 0.590443 0.910946
vt 0.594059 0.909138
vt 0.592251 0.930835
vt 0.926700 0.905159
vt 0.923084 0.906967
vt 0.921276 0.926856
vt 0.924892 0.926856
vt 0.593599 0.823073
vt 0.593954 0.843284
vt 0.588635 0.844348
vt 0.589699 0.822009
vt 0.385273 0.807277
vt 0.390592 0.808341
vt 0.390237 0.828552
vt 0.386337 0.829616
vt 0.593954 0.861723
vt 0.588990 0.864559
vt 0.385628 0.787066
vt 0.390592 0.789903
vt 0.497851 0.881363
vt 0.497851 0.901252
vt 0.503276 0.901252
vt 0.503276 0.879555
vt 0.594059 0.887753
vt 0.588635 0.887753
vt 0.588635 0.867865
vt 0.594059 0.866057
vt 0.497851 0.919332
vt 0.503276 0.921140
vt 0.594059 0.907641
vt 0.588635 0.905833
vt 0.774201 0.888236
vt 0.774201 0.869798
vt 0.768882 0.870861
vt 0.769237 0.891073
vt 0.385273 0.851324
vt 0.390592 0.852388
vt 0.390592 0.833950
vt 0.385628 0.831113
vt 0.773846 0.849586
vt 0.769946 0.848523
vt 0.386337 0.873663
vt 0.390237 0.872599
vt 0.590443 0.948915
vt 0.594059 0.950723
vt 0.923084 0.944936
vt 0.926700 0.946744
vt 0.845127 0.407077
vt 0.835113 0.379401
vt 0.856253 0.380374
vt 0.181159 0.940518
vt 0.180186 0.919378
vt 0.207862 0.929392
vt 0.818424 0.395951
vt 0.196736 0.902688
vt 0.819119 0.417786
vt 0.218571 0.903384
vt 0.834001 0.433780
vt 0.234565 0.918265
vt 0.857505 0.433780
vt 0.234565 0.941770
vt 0.873499 0.418899
vt 0.219684 0.957764
vt 0.873499 0.395395
vt 0.196180 0.957764
vt 0.513917 0.841897
vt 0.510301 0.823817
vt 0.472333 0.822009
vt 0.472333 0.836473
vt 0.434364 0.823817
vt 0.430748 0.841897
vt 0.548270 0.849130
vt 0.526573 0.823817
vt 0.418092 0.823817
vt 0.396396 0.849130
vt 0.013405 0.114654
vt 0.029677 0.138159
vt 0.007981 0.145391
vt 0.000749 0.123694
vt 0.007981 0.253872
vt 0.029677 0.261104
vt 0.013405 0.284609
vt 0.000749 0.275569
vt 0.653739 0.744474
vt 0.649086 0.771253
vt 0.622687 0.763003
vt 0.609742 0.730724
vt 0.866354 0.828252
vt 0.866181 0.800595
vt 0.839255 0.804310
vt 0.839544 0.850405
vt 0.713073 0.750756
vt 0.707848 0.782929
vt 0.859425 0.741066
vt 0.827188 0.745878
vt 0.723229 0.038241
vt 0.735780 0.091503
vt 0.762975 0.071470
vt 0.770859 0.000749
vt 0.901931 0.306772
vt 0.874737 0.286739
vt 0.862186 0.340001
vt 0.909816 0.377493
vt 0.753561 0.133099
vt 0.770859 0.122640
vt 0.909816 0.255602
vt 0.892518 0.245143
vt 0.756667 0.907656
vt 0.756667 0.956171
vt 0.718664 0.951319
vt 0.729176 0.918168
vt 0.597346 0.988193
vt 0.635349 0.993044
vt 0.635349 0.944530
vt 0.607858 0.955041
vt 0.253872 0.007981
vt 0.318961 0.000749
vt 0.306305 0.027869
vt 0.266528 0.031485
vt 0.306305 0.371394
vt 0.318961 0.398514
vt 0.253872 0.391282
vt 0.266528 0.367778
vt 0.331617 0.035101
vt 0.315345 0.040525
vt 0.315345 0.358738
vt 0.331617 0.364162
vt 0.791482 0.035000
vt 0.799360 0.087058
vt 0.781595 0.109087
vt 0.772357 0.049700
vt 0.180186 0.794875
vt 0.201503 0.813489
vt 0.202776 0.866124
vt 0.181390 0.854965
vt 0.813890 0.993693
vt 0.809996 0.956142
vt 0.842123 0.972136
vt 0.842123 0.995640
vt 0.808499 0.972136
vt 0.776371 0.956142
vt 0.780266 0.993693
vt 0.808499 0.995640
vt 0.394898 0.125502
vt 0.385858 0.163471
vt 0.362354 0.152623
vt 0.367778 0.127310
vt 0.362354 0.246640
vt 0.385858 0.235792
vt 0.394898 0.273760
vt 0.367778 0.271952
vt 0.032738 0.897474
vt 0.033114 0.949936
vt 0.055394 0.963485
vt 0.055394 0.920055
vt 0.965959 0.418035
vt 0.943679 0.404486
vt 0.943303 0.352024
vt 0.965959 0.374605
vt 0.333425 0.185167
vt 0.318961 0.199631
vt 0.300881 0.199631
vt 0.318961 0.176127
vt 0.333425 0.214096
vt 0.318961 0.223136
vt 0.315345 0.161663
vt 0.328001 0.141775
vt 0.328001 0.257488
vt 0.315345 0.237600
vt 0.329809 0.123694
vt 0.329809 0.275569
vt 0.320769 0.100190
vt 0.346081 0.098382
vt 0.346081 0.300881
vt 0.320769 0.299073
vt 0.306305 0.060414
vt 0.306305 0.338849
vt 0.288225 0.051373
vt 0.288225 0.347890
vt 0.262912 0.054989
vt 0.262912 0.344273
vt 0.233984 0.085726
vt 0.232176 0.056797
vt 0.232176 0.342465
vt 0.233984 0.313537
vt 0.223136 0.112846
vt 0.208672 0.107422
vt 0.208672 0.291841
vt 0.223136 0.286417
vt 0.241216 0.152623
vt 0.196015 0.170703
vt 0.196015 0.228560
vt 0.241216 0.246640
vt 0.252064 0.161663
vt 0.230368 0.199631
vt 0.252064 0.237600
vt 0.290033 0.170703
vt 0.290033 0.228560
vt 0.268336 0.199631
vt 0.268336 0.168895
vt 0.268336 0.230368
vt 0.015213 0.185167
vt 0.013405 0.199631
vt 0.000749 0.199631
vt 0.004365 0.161663
vt 0.015213 0.214096
vt 0.004365 0.237600
vt 0.026061 0.172511
vt 0.026061 0.226752
vt 0.053181 0.174319
vt 0.053181 0.224944
vt 0.116462 0.150815
vt 0.116462 0.181551
vt 0.060414 0.172511
vt 0.056797 0.141775
vt 0.060414 0.226752
vt 0.116462 0.217712
vt 0.116462 0.248448
vt 0.056797 0.257488
vt 0.152623 0.179743
vt 0.143583 0.199631
vt 0.116462 0.199631
vt 0.152623 0.219520
vt 0.062222 0.199631
vt 0.042333 0.199631
vt 0.864546 0.970606
vt 0.853698 0.970606
vt 0.857314 0.959758
vt 0.866354 0.956142
vt 0.981021 0.728606
vt 0.977405 0.739454
vt 0.988253 0.739454
vt 0.990061 0.724990
vt 0.866354 0.988686
vt 0.857314 0.992302
vt 0.981021 0.761150
vt 0.990061 0.757534
vt 0.954050 0.293923
vt 0.963091 0.302963
vt 0.963091 0.319235
vt 0.954050 0.317427
vt 0.726300 0.410024
vt 0.726300 0.426296
vt 0.717259 0.435336
vt 0.717259 0.411832
vt 0.950245 0.641820
vt 0.939250 0.642076
vt 0.940784 0.656906
vt 0.950245 0.654605
vt 0.940784 0.656906
vt 0.586349 0.719686
vt 0.586349 0.739574
vt 0.595389 0.741382
vt 0.595389 0.719686
vt 0.595389 0.697990
vt 0.586349 0.699798
vt 0.677391 0.932969
vt 0.688239 0.911272
vt 0.693663 0.914888
vt 0.684623 0.932969
vt 0.693663 0.951049
vt 0.688239 0.954665
vt 0.932602 0.637474
vt 0.934392 0.650514
vt 0.934392 0.650514
vt 0.970323 0.304771
vt 0.970323 0.315619
vt 0.733532 0.413640
vt 0.733532 0.424488
vt 0.850082 0.986878
vt 0.846466 0.970606
vt 0.970173 0.739454
vt 0.973789 0.755726
vt 0.772357 0.190297
vt 0.781397 0.190297
vt 0.781397 0.181257
vt 0.774888 0.180895
vt 0.780715 0.649548
vt 0.789755 0.649548
vt 0.789755 0.640508
vt 0.780354 0.643039
vt 0.704511 0.932969
vt 0.699087 0.907656
vt 0.715359 0.911272
vt 0.717167 0.922121
vt 0.715359 0.954665
vt 0.699087 0.958281
vt 0.717167 0.943817
vt 0.186975 0.199631
vt 0.185167 0.176127
vt 0.185167 0.223136
vt 0.167087 0.170703
vt 0.163471 0.161663
vt 0.163471 0.237600
vt 0.167087 0.228560
vt 0.147199 0.158047
vt 0.147199 0.241216
vt 0.742221 0.750206
vt 0.738413 0.786165
vt 0.853209 0.710965
vt 0.817795 0.718279
vt 0.756605 0.751729
vt 0.754595 0.787879
vt 0.849917 0.695029
vt 0.814870 0.704113
vt 0.770798 0.755050
vt 0.784484 0.814679
vt 0.866354 0.658404
vt 0.813715 0.689582
vt 0.040525 0.199631
vt 0.047757 0.177935
vt 0.047757 0.221328
vt 0.029677 0.177935
vt 0.029677 0.221328
vt 0.018829 0.188783
vt 0.018829 0.210480
vt 0.017021 0.199631
vt 0.320458 0.587736
vt 0.309610 0.587736
vt 0.309610 0.575079
vt 0.320459 0.575079
vt 0.331307 0.575079
vt 0.331307 0.587736
vt 0.298762 0.593160
vt 0.298762 0.576887
vt 0.342155 0.576887
vt 0.342155 0.593160
vt 0.756667 0.976106
vt 0.756667 0.957668
vt 0.742839 0.962278
vt 0.740357 0.977525
vt 0.721146 0.962278
vt 0.734975 0.957668
vt 0.734975 0.976106
vt 0.718664 0.977525
vt 0.343652 0.591352
vt 0.365348 0.589544
vt 0.365348 0.575079
vt 0.343652 0.576887
vt 0.387045 0.591352
vt 0.387045 0.576887
vt 0.672113 0.428104
vt 0.672113 0.410024
vt 0.682961 0.411832
vt 0.693809 0.435336
vt 0.661265 0.411832
vt 0.650417 0.435336
vt 0.693809 0.420872
vt 0.650417 0.420872
vt 0.255680 0.156239
vt 0.270144 0.159855
vt 0.255680 0.243024
vt 0.270144 0.239408
vt 0.288225 0.158047
vt 0.288225 0.241216
vt 0.306305 0.150815
vt 0.306305 0.248448
vt 0.244832 0.147199
vt 0.244832 0.252064
vt 0.947368 0.182421
vt 0.947368 0.141631
vt 0.938552 0.143634
vt 0.937350 0.179136
vt 0.384626 0.939117
vt 0.393441 0.941120
vt 0.393441 0.900329
vt 0.383424 0.903615
vt 0.243024 0.089342
vt 0.233984 0.112846
vt 0.243024 0.309921
vt 0.233984 0.286417
vt 0.264720 0.065838
vt 0.264720 0.333425
vt 0.286417 0.064030
vt 0.286417 0.335233
vt 0.300881 0.069454
vt 0.300881 0.329809
vt 0.311729 0.101998
vt 0.311729 0.297265
vt 0.318961 0.121886
vt 0.318961 0.277377
vt 0.317153 0.136351
vt 0.317153 0.262912
vt 0.302689 0.145391
vt 0.311729 0.134543
vt 0.302689 0.253872
vt 0.311729 0.264720
vt 0.313537 0.121886
vt 0.313537 0.277377
vt 0.309921 0.103806
vt 0.309921 0.295457
vt 0.593864 0.817086
vt 0.593864 0.779856
vt 0.588245 0.780910
vt 0.587191 0.812520
vt 0.386327 0.784515
vt 0.391946 0.785569
vt 0.391946 0.748339
vt 0.385273 0.752905
vt 0.297265 0.076686
vt 0.284609 0.071262
vt 0.297265 0.322577
vt 0.284609 0.328001
vt 0.268336 0.073070
vt 0.268336 0.326193
vt 0.246640 0.092958
vt 0.246640 0.306305
vt 0.239408 0.112846
vt 0.239408 0.286417
vt 0.248448 0.143583
vt 0.248448 0.255680
vt 0.259296 0.152623
vt 0.259296 0.246640
vt 0.288225 0.154431
vt 0.288225 0.244832
vt 0.497851 0.955182
vt 0.497851 0.937101
vt 0.505084 0.938909
vt 0.503276 0.955182
vt 0.393441 0.958890
vt 0.386209 0.957082
vt 0.386209 0.975162
vt 0.391633 0.975162
vt 0.499659 0.922637
vt 0.505084 0.926253
vt 0.393441 0.946234
vt 0.388017 0.942617
vt 0.669391 0.969842
vt 0.671199 0.984306
vt 0.638655 0.995155
vt 0.636847 0.969842
vt 0.638655 0.944530
vt 0.671199 0.955378
vt 0.000749 0.911474
vt 0.000899 0.958517
vt 0.911313 0.366024
vt 0.911464 0.413067
vt 0.816862 0.164536
vt 0.806020 0.127746
vt 0.834119 0.110935
vt 0.842708 0.142791
vt 0.231593 0.783944
vt 0.201003 0.772262
vt 0.205299 0.734150
vt 0.234525 0.751081
vt 0.828069 0.075932
vt 0.231707 0.819466
vt 0.822445 0.028808
vt 0.234343 0.866851
vt 0.783787 0.000749
vt 0.817755 0.001134
vt 0.234525 0.894918
vt 0.201140 0.901191
vt 0.085777 0.734150
vt 0.145628 0.776981
vt 0.139846 0.792616
vt 0.086999 0.765337
vt 0.903700 0.983154
vt 0.919778 0.978757
vt 0.919778 0.905159
vt 0.895127 0.924303
vt 0.749378 0.183062
vt 0.723953 0.136639
vt 0.729666 0.177028
vt 0.862910 0.241603
vt 0.888334 0.195180
vt 0.868622 0.201214
vt 0.722264 0.096652
vt 0.861220 0.281589
vt 0.331237 0.670905
vt 0.351125 0.670905
vt 0.367397 0.629320
vt 0.338469 0.641976
vt 0.367397 0.712489
vt 0.338469 0.699833
vt 0.276996 0.670905
vt 0.287844 0.638360
vt 0.287844 0.703449
vt 0.237220 0.670905
vt 0.244452 0.632936
vt 0.244452 0.708873
vt 0.472333 0.863594
vt 0.510301 0.869018
vt 0.434364 0.869018
vt 0.548270 0.878058
vt 0.396396 0.878058
vt 0.597346 0.727594
vt 0.607584 0.699588
vt 0.654712 0.700941
vt 0.810540 0.861933
vt 0.840333 0.863165
vt 0.797491 0.816627
vt 0.703067 0.707880
vt 0.789388 0.768454
vt 0.298692 0.604008
vt 0.347509 0.613048
vt 0.298692 0.737802
vt 0.347509 0.728762
vt 0.251684 0.594968
vt 0.251684 0.746842
vt 0.736848 0.715093
vt 0.694839 0.699736
vt 0.726081 0.679408
vt 0.931105 0.662122
vt 0.920141 0.658404
vt 0.886613 0.666711
vt 0.911918 0.694078
vt 0.785981 0.734080
vt 0.752459 0.722200
vt 0.764093 0.732522
vt 0.794296 0.702824
vt 0.788002 0.717047
vt 0.775917 0.741047
vt 0.798819 0.688967
vt 0.709713 0.043390
vt 0.848669 0.334851
vt 0.457723 0.194184
vt 0.459464 0.116375
vt 0.412691 0.111337
vt 0.396396 0.189955
vt 0.401745 0.270066
vt 0.448766 0.271496
vt 0.670562 0.437818
vt 0.597346 0.481554
vt 0.618731 0.542093
vt 0.683088 0.510882
vt 0.754165 0.518875
vt 0.754165 0.454671
vt 0.655135 0.636744
vt 0.704166 0.633842
vt 0.751365 0.620247
vt 0.665929 0.656906
vt 0.707832 0.655226
vt 0.747903 0.642854
vt 0.733760 0.658404
vt 0.914213 0.716324
vt 0.869466 0.667157
vt 0.178688 0.788789
vt 0.178688 0.869078
vt 0.113708 0.863867
vt 0.589640 0.548339
vt 0.595849 0.468290
vt 0.556828 0.469102
vt 0.525257 0.538118
vt 0.571358 0.202021
vt 0.549838 0.093610
vt 0.535159 0.306452
vt 0.149007 0.400012
vt 0.253872 0.412668
vt 0.253872 0.483181
vt 0.149007 0.484989
vt 0.044141 0.483181
vt 0.044141 0.412668
vt 0.253872 0.555502
vt 0.149007 0.593470
vt 0.044141 0.555502
vt 0.648919 0.207370
vt 0.648919 0.102256
vt 0.634489 0.311490
vt 0.850829 0.003916
vt 0.871356 0.018392
vt 0.360235 0.522957
vt 0.376507 0.551886
vt 0.349387 0.559118
vt 0.338539 0.510301
vt 0.587138 0.932314
vt 0.565237 0.944612
vt 0.549767 0.895536
vt 0.586189 0.879858
vt 0.376507 0.474141
vt 0.340347 0.457868
vt 0.550686 0.839494
vt 0.587138 0.822009
vt 0.376507 0.418092
vt 0.340347 0.400012
vt 0.438079 0.649474
vt 0.469221 0.666847
vt 0.430011 0.710789
vt 0.396396 0.692771
vt 0.436086 0.616878
vt 0.430259 0.558274
vt 0.396396 0.569450
vt 0.400073 0.629439
vt 0.515131 0.018724
vt 0.527073 0.055794
vt 0.608615 0.055980
vt 0.578636 0.017666
vt 0.588214 0.351794
vt 0.507419 0.340785
vt 0.490501 0.375865
vt 0.553259 0.385630
vt 0.297265 0.512109
vt 0.297265 0.569966
vt 0.000749 0.512109
vt 0.000749 0.569966
vt 0.259157 0.896266
vt 0.237220 0.826856
vt 0.288365 0.843988
vt 0.309749 0.898832
vt 0.362392 0.843988
vt 0.311246 0.826856
vt 0.333184 0.896266
vt 0.383776 0.898832
vt 0.277774 0.748339
vt 0.309749 0.768893
vt 0.383776 0.768893
vt 0.351800 0.748339
vt 0.856636 0.068846
vt 0.304186 0.573582
vt 0.298762 0.544654
vt 0.726354 0.301853
vt 0.737202 0.408527
vt 0.661265 0.406719
vt 0.650417 0.301853
vt 0.661265 0.196988
vt 0.737202 0.195180
vt 0.548270 0.879555
vt 0.507488 0.910251
vt 0.510119 0.943139
vt 0.548270 0.969011
vt 0.458204 0.905427
vt 0.455573 0.938316
vt 0.496354 0.969011
vt 0.496354 0.879555
vt 0.852616 0.160130
vt 0.871356 0.179398
vt 0.961854 0.879073
vt 0.932602 0.875820
vt 0.945821 0.789119
vt 0.961854 0.767546
vt 0.558716 0.955059
vt 0.585564 0.946110
vt 0.585564 0.981907
vt 0.549767 0.981907
vt 0.083090 0.794000
vt 0.506248 0.437818
vt 0.500134 0.466093
vt 0.548340 0.723160
vt 0.518005 0.717889
vt 0.523975 0.649420
vt 0.584376 0.655928
vt 0.454474 0.506166
vt 0.500851 0.556889
vt 0.485895 0.734616
vt 0.491442 0.591850
vt 0.446416 0.774525
vt 0.494116 0.647923
vt 0.886889 0.622132
vt 0.877404 0.521507
vt 0.906936 0.526357
vt 0.934650 0.604961
vt 0.901294 0.813318
vt 0.931105 0.815974
vt 0.867851 0.736976
vt 0.076046 0.758001
vt 0.001719 0.734150
vt 0.000749 0.817490
vt 0.039437 0.809586
vt 0.157111 0.594968
vt 0.073810 0.597730
vt 0.099254 0.671527
vt 0.150040 0.633817
vt 0.650417 0.116284
vt 0.660554 0.193682
vt 0.000749 0.612200
vt 0.017069 0.648744
vt 0.703598 0.047655
vt 0.695794 0.052562
vt 0.820751 0.637203
vt 0.829792 0.639011
vt 0.829792 0.586578
vt 0.755663 0.593810
vt 0.784484 0.660138
vt 0.394424 0.533940
vt 0.382591 0.478003
vt 0.394424 0.473163
vt 0.769997 0.968434
vt 0.758165 0.963593
vt 0.769997 0.907656
vt 0.449886 0.045034
vt 0.454613 0.081606
vt 0.439188 0.305270
vt 0.429485 0.340847
vt 0.007405 0.895977
vt 0.045539 0.871709
vt 0.235722 0.599935
vt 0.212281 0.638582
vt 0.896844 0.450316
vt 0.934650 0.437818
vt 0.880196 0.903662
vt 0.916975 0.888406
vt 0.820527 0.212480
vt 0.847172 0.234831
vt 0.837827 0.243923
vt 0.819264 0.227002
vt 0.881397 0.941036
vt 0.868918 0.937260
vt 0.882300 0.905159
vt 0.890100 0.917474
vt 0.781507 0.213364
vt 0.774310 0.195180
vt 0.909865 0.124244
vt 0.949804 0.120194
vt 0.947499 0.134588
vt 0.898462 0.140133
vt 0.756631 0.243165
vt 0.738699 0.231927
vt 0.892979 0.089289
vt 0.872853 0.095832
vt 0.758777 0.293550
vt 0.741730 0.295444
vt 0.907310 0.040938
vt 0.891234 0.034956
vt 0.793756 0.328782
vt 0.788958 0.342546
vt 0.949804 0.015267
vt 0.948496 0.000749
vt 0.838206 0.345703
vt 0.847172 0.364266
vt 0.953031 0.586661
vt 0.962601 0.633249
vt 0.948246 0.635778
vt 0.936147 0.574833
vt 0.388862 0.656340
vt 0.378143 0.666218
vt 0.386550 0.615775
vt 0.393906 0.594968
vt 0.962436 0.931533
vt 0.958189 0.880571
vt 0.968063 0.891294
vt 0.968063 0.952873
vt 0.393906 0.703840
vt 0.383397 0.704681
vt 0.964179 0.243152
vt 0.965342 0.204350
vt 0.975881 0.204076
vt 0.975881 0.251844
vt 0.999251 0.211452
vt 0.990211 0.220492
vt 0.990211 0.256653
vt 0.999251 0.260269
vt 0.981021 0.719876
vt 0.981021 0.683716
vt 0.990061 0.674676
vt 0.990061 0.723492
vt 0.781255 0.231800
vt 0.761808 0.253520
vt 0.900518 0.080504
vt 0.914102 0.106300
vt 0.814087 0.242534
vt 0.948558 0.103870
vt 0.715762 0.433036
vt 0.695307 0.435593
vt 0.697864 0.415138
vt 0.715762 0.410024
vt 0.371452 0.720960
vt 0.368895 0.741416
vt 0.389350 0.738859
vt 0.389350 0.715847
vt 0.584376 0.777483
vt 0.546726 0.820512
vt 0.533280 0.801149
vt 0.550814 0.784583
vt 0.572494 0.601976
vt 0.595849 0.605176
vt 0.572159 0.577856
vt 0.995482 0.880571
vt 0.995482 0.922312
vt 0.978175 0.933511
vt 0.969560 0.907354
vt 0.937682 0.533120
vt 0.962601 0.560838
vt 0.969560 0.960787
vt 0.979494 0.957257
vt 0.983107 0.981312
vt 0.970628 0.985088
vt 0.877785 0.965091
vt 0.867851 0.961561
vt 0.967863 0.448032
vt 0.965175 0.469937
vt 0.943404 0.469803
vt 0.943001 0.437818
vt 0.940883 0.934612
vt 0.944812 0.966357
vt 0.917816 0.655871
vt 0.910008 0.627493
vt 0.924422 0.626292
vt 0.924422 0.648063
vt 0.896649 0.655871
vt 0.882235 0.654670
vt 0.890043 0.626292
vt 0.896649 0.634099
vt 0.898146 0.637553
vt 0.901149 0.651817
vt 0.870373 0.644610
vt 0.873376 0.630346
vt 0.490144 0.774041
vt 0.498964 0.760487
vt 0.522845 0.790500
vt 0.499287 0.789639
vt 0.557592 0.602454
vt 0.519335 0.599731
vt 0.523347 0.615397
vt 0.541019 0.619218
vt 0.983763 0.935008
vt 0.995339 0.935172
vt 0.994765 0.955779
vt 0.893630 0.987175
vt 0.882054 0.987339
vt 0.893055 0.966569
vt 0.995339 0.974990
vt 0.893630 0.947358
vt 0.488907 0.743330
vt 0.499896 0.595528
vt 0.381304 0.566286
vt 0.378822 0.551039
vt 0.391587 0.551748
vt 0.394424 0.565223
vt 0.781647 0.832487
vt 0.768882 0.831778
vt 0.771364 0.847025
vt 0.784484 0.845962
vt 0.383786 0.535438
vt 0.394424 0.537565
vt 0.784484 0.818304
vt 0.773846 0.816177
vt 0.974947 0.644551
vt 0.974947 0.626471
vt 0.964099 0.628279
vt 0.964099 0.646359
vt 0.954050 0.338813
vt 0.964899 0.340621
vt 0.964899 0.322540
vt 0.954050 0.320732
vt 0.974947 0.640935
vt 0.964099 0.642743
vt 0.954050 0.324349
vt 0.964899 0.326157
vt 0.766511 0.640508
vt 0.766511 0.656780
vt 0.755663 0.656780
vt 0.755663 0.642316
vt 0.768008 0.656780
vt 0.778856 0.656780
vt 0.778856 0.640508
vt 0.768008 0.642316
vt 0.948780 0.474641
vt 0.936147 0.477866
vt 0.942866 0.483914
vt 0.932602 0.927604
vt 0.945555 0.929091
vt 0.938441 0.920703
vt 0.956709 0.479345
vt 0.952774 0.923357
vt 0.391196 0.424053
vt 0.394898 0.400012
vt 0.385303 0.408460
vt 0.382591 0.434013
vt 0.587191 0.768548
vt 0.595389 0.778359
vt 0.595389 0.754034
vt 0.588400 0.742880
vt 0.394898 0.462696
vt 0.387806 0.471665
vt 0.585873 0.687398
vt 0.595389 0.696493
vt 0.595389 0.657673
vt 0.587473 0.649420
vt 0.992019 0.195180
vt 0.981171 0.198796
vt 0.979363 0.222300
vt 0.971981 0.662020
vt 0.982829 0.658404
vt 0.970173 0.685524
vt 0.981171 0.258461
vt 0.971981 0.721684
vt 0.379194 0.714349
vt 0.368895 0.675046
vt 0.960141 0.195180
vt 0.954050 0.235351
vt 0.967863 0.521005
vt 0.960740 0.531622
vt 0.977866 0.292425
vt 0.966848 0.286198
vt 0.928799 0.155252
vt 0.935853 0.168995
vt 0.914448 0.176414
vt 0.913718 0.161090
vt 0.782392 0.387685
vt 0.790050 0.366364
vt 0.803713 0.373571
vt 0.797707 0.388586
vt 0.894015 0.177387
vt 0.892069 0.163401
vt 0.781191 0.408105
vt 0.795155 0.410207
vt 0.874799 0.177022
vt 0.872853 0.163036
vt 0.437548 0.923474
vt 0.454075 0.933284
vt 0.445055 0.944149
vt 0.428528 0.934338
vt 0.137297 0.904184
vt 0.126049 0.912721
vt 0.114937 0.904590
vt 0.123474 0.891716
vt 0.429910 0.912017
vt 0.416676 0.919984
vt 0.136890 0.881823
vt 0.154237 0.895104
vt 0.418717 0.950865
vt 0.406206 0.932955
vt 0.892313 0.141631
vt 0.873218 0.143820
vt 0.433795 0.962783
vt 0.910312 0.143333
vt 0.815425 0.392189
vt 0.816926 0.410207
vt 0.935853 0.142117
vt 0.816926 0.366664
vt 0.955230 0.499906
vt 0.948528 0.903185
vt 0.118054 0.955409
vt 0.135129 0.929661
vt 0.145970 0.947007
vt 0.154237 0.967470
vt 0.753864 0.393691
vt 0.779840 0.365763
vt 0.085529 0.927493
vt 0.781341 0.427324
vt 0.738699 0.433780
vt 0.083090 0.889819
vt 0.416544 0.879555
vt 0.454075 0.883638
vt 0.104231 0.870575
vt 0.396396 0.899835
vt 0.943871 0.272078
vt 0.952553 0.195180
vt 0.914104 0.222466
vt 0.911313 0.291613
vt 0.192260 0.675075
vt 0.145124 0.676088
vt 0.197937 0.732652
vt 0.235722 0.728927
vt 0.952553 0.332232
vt 0.936119 0.350527
vt 0.868876 0.591948
vt 0.831289 0.586578
vt 0.846630 0.645387
vt 0.868876 0.655871
vt 0.280612 0.900329
vt 0.342085 0.902137
vt 0.342085 0.925642
vt 0.286036 0.918410
vt 0.342085 0.956067
vt 0.342085 0.932563
vt 0.280612 0.930755
vt 0.286036 0.948835
vt 0.237220 0.900329
vt 0.246260 0.929258
vt 0.237220 0.930755
vt 0.246260 0.959683
vt 0.343582 0.965298
vt 0.355002 0.911508
vt 0.381927 0.900329
vt 0.381927 0.954720
vt 0.945011 0.658404
vt 0.968676 0.675430
vt 0.967522 0.730407
vt 0.932602 0.711360
vt 0.875802 0.435988
vt 0.874996 0.400337
vt 0.908817 0.379401
vt 0.908817 0.424056
vt 0.968676 0.766048
vt 0.935055 0.755948
vt 0.755663 0.511505
vt 0.875906 0.496377
vt 0.875906 0.437818
vt 0.762305 0.472038
vt 0.400065 0.373252
vt 0.405103 0.431594
vt 0.526203 0.436321
vt 0.516189 0.397572
vt 0.756611 0.564426
vt 0.853521 0.563924
vt 0.611669 0.846818
vt 0.623268 0.943033
vt 0.675893 0.937368
vt 0.675893 0.816177
vt 0.800098 0.585081
vt 0.597346 0.902465
vt 0.470512 0.722676
vt 0.443619 0.744728
vt 0.472241 0.595098
vt 0.470283 0.629821
vt 0.543556 0.000749
vt 0.425193 0.008897
vt 0.081593 0.850909
vt 0.081593 0.803761
vn 0.6650 -0.2008 0.7194
vn -0.6650 -0.2008 0.7194
vn 0.8294 -0.3036 0.4689
vn -0.8294 -0.3036 0.4689
vn 0.4155 -0.7933 0.4449
vn -0.4155 -0.7933 0.4449
vn 0.3599 -0.5089 0.7820
vn -0.3599 -0.5089 0.7820
vn -0.0787 -0.5394 0.8384
vn 0.0787 -0.5394 0.8384
vn -0.2696 -0.8413 0.4685
vn 0.2696 -0.8413 0.4685
vn -0.7707 -0.3352 0.5420
vn 0.7707 -0.3352 0.5420
vn -0.4689 -0.1940 0.8617
vn 0.4689 -0.1940 0.8617
vn -0.4767 0.1907 0.8581
vn 0.4767 0.1907 0.8581
vn -0.7672 0.3264 0.5521
vn 0.7672 0.3264 0.5521
vn -0.2519 0.8173 0.5182
vn 0.2519 0.8173 0.5182
vn -0.0949 0.5696 0.8164
vn 0.0949 0.5696 0.8164
vn 0.3667 0.5370 0.7597
vn -0.3667 0.5370 0.7597
vn 0.4141 0.7672 0.4898
vn -0.4141 0.7672 0.4898
vn 0.8277 0.2952 0.4771
vn -0.8277 0.2952 0.4771
vn 0.6713 0.1971 0.7145
vn -0.6713 0.1971 0.7145
vn 0.8111 0.3244 -0.4867
vn -0.8111 0.3244 -0.4867
vn 0.2052 0.8206 -0.5334
vn -0.2052 0.8206 -0.5334
vn -0.4223 0.7806 -0.4607
vn 0.4223 0.7806 -0.4607
vn -0.8241 0.3225 -0.4658
vn 0.8241 0.3225 -0.4658
vn -0.8137 -0.3487 -0.4650
vn 0.8137 -0.3487 -0.4650
vn -0.4223 -0.7806 -0.4607
vn 0.4223 -0.7806 -0.4607
vn 0.2052 -0.8206 -0.5334
vn -0.2051 -0.8206 -0.5334
vn 0.7995 -0.3510 -0.4875
vn -0.7995 -0.3510 -0.4875
vn 0.4000 -0.0623 0.9144
vn -0.4000 -0.0623 0.9144
vn 0.3069 -0.1754 0.9354
vn -0.3069 -0.1754 0.9354
vn 0.0945 -0.1835 0.9785
vn -0.0945 -0.1835 0.9785
vn -0.0624 -0.0283 0.9977
vn 0.0624 -0.0283 0.9977
vn -0.0624 0.0260 0.9977
vn 0.0624 0.0260 0.9977
vn 0.0996 0.1729 0.9799
vn -0.0996 0.1729 0.9799
vn 0.3036 0.1656 0.9383
vn -0.3036 0.1656 0.9383
vn 0.4002 0.0572 0.9147
vn -0.4002 0.0572 0.9147
vn 0.1231 -0.8616 0.4924
vn -0.1231 -0.8616 0.4924
vn 0.2190 -0.8647 0.4520
vn -0.2190 -0.8647 0.4520
vn 0.5902 -0.4550 0.6668
vn -0.5902 -0.4550 0.6668
vn 0.7689 -0.0506 0.6374
vn -0.7689 -0.0506 0.6374
vn 0.7796 0.0900 0.6197
vn -0.7796 0.0900 0.6197
vn 0.3241 -0.8188 0.4739
vn -0.3241 -0.8188 0.4739
vn 0.3857 -0.6629 0.6417
vn -0.3857 -0.6629 0.6417
vn 0.6895 -0.4193 0.5906
vn -0.6895 -0.4193 0.5906
vn 0.6588 -0.3634 0.6587
vn -0.6588 -0.3634 0.6588
vn 0.5465 0.3707 0.7509
vn -0.5465 0.3707 0.7509
vn 0.5064 0.6464 0.5706
vn -0.5064 0.6464 0.5706
vn 0.6092 0.5167 0.6015
vn -0.6092 0.5167 0.6015
vn -0.0441 0.6610 0.7491
vn 0.0441 0.6610 0.7491
vn -0.7246 0.3187 0.6110
vn 0.7246 0.3187 0.6110
vn -0.5880 0.5554 0.5880
vn 0.5880 0.5554 0.5880
vn 0.5361 -0.3909 0.7482
vn -0.5361 -0.3909 0.7482
vn 0.2207 -0.4690 0.8552
vn -0.2207 -0.4690 0.8552
vn -0.0794 -0.5321 0.8429
vn 0.0794 -0.5321 0.8429
vn -0.0825 -0.6575 0.7490
vn 0.0825 -0.6575 0.7490
vn 0.0457 -0.5667 0.8226
vn -0.0457 -0.5667 0.8226
vn 0.2784 -0.2130 0.9365
vn -0.2784 -0.2130 0.9365
vn 0.3813 -0.1824 0.9063
vn -0.3813 -0.1824 0.9063
vn 0.3357 -0.2878 0.8969
vn -0.3357 -0.2878 0.8969
vn 0.3762 0.0603 0.9246
vn -0.3762 0.0603 0.9246
vn -0.1352 0.2680 0.9539
vn 0.1352 0.2680 0.9539
vn 0.3961 -0.4321 0.8102
vn -0.3961 -0.4321 0.8102
vn 0.1856 -0.2474 0.9510
vn -0.1856 -0.2474 0.9510
vn 0.0099 -0.1948 0.9808
vn -0.0099 -0.1948 0.9808
vn 0.0721 -0.6966 0.7138
vn -0.0721 -0.6966 0.7138
vn 0.1863 -0.5723 0.7986
vn -0.1863 -0.5723 0.7986
vn 0.3157 -0.2708 0.9094
vn -0.3157 -0.2708 0.9094
vn 0.3063 -0.0265 0.9516
vn -0.3063 -0.0265 0.9516
vn 0.3266 -0.1306 0.9361
vn -0.3265 -0.1306 0.9361
vn -0.0137 0.0574 0.9983
vn 0.0137 0.0574 0.9983
vn -0.0026 -0.0656 0.9978
vn 0.0026 -0.0656 0.9978
vn 0.0000 0.0000 1.0000
vn 0.8174 -0.5744 -0.0442
vn -0.8174 -0.5744 -0.0442
vn 0.9494 0.2297 -0.2144
vn -0.9494 0.2297 -0.2144
vn 0.0825 0.9073 -0.4124
vn -0.0825 0.9073 -0.4124
vn -0.8836 0.3555 0.3047
vn 0.8836 0.3555 0.3047
vn 0.4207 -0.8797 0.2218
vn -0.4207 -0.8797 0.2218
vn 0.2874 -0.5747 0.7663
vn -0.2874 -0.5747 0.7663
vn -0.6542 0.6019 0.4580
vn 0.6542 0.6019 0.4580
vn 0.1052 0.7892 0.6051
vn -0.1052 0.7892 0.6051
vn 0.7582 0.2916 0.5832
vn -0.7582 0.2916 0.5832
vn 0.3889 -0.7130 0.5834
vn -0.3889 -0.7130 0.5834
vn 0.0463 0.2314 0.9718
vn -0.0463 0.2314 0.9718
vn 0.0335 -0.4018 0.9151
vn -0.0335 -0.4018 0.9151
vn -0.4452 -0.1610 0.8809
vn 0.4452 -0.1610 0.8809
vn -0.2182 -0.4364 0.8729
vn 0.2182 -0.4364 0.8729
vn 0.4341 -0.1290 0.8916
vn -0.4341 -0.1290 0.8916
vn 0.3008 0.0501 0.9524
vn -0.3008 0.0501 0.9524
vn 0.8123 0.3010 0.4996
vn -0.8123 0.3010 0.4996
vn 0.8753 0.2574 0.4093
vn -0.8753 0.2574 0.4093
vn 0.9385 0.1601 0.3060
vn -0.9385 0.1601 0.3060
vn 0.2237 -0.6539 0.7227
vn -0.2237 -0.6539 0.7227
vn -0.1536 -0.1997 0.9677
vn 0.1536 -0.1997 0.9677
vn -0.2733 -0.1025 0.9565
vn 0.2733 -0.1025 0.9565
vn -0.0976 0.1952 0.9759
vn 0.0976 0.1952 0.9759
vn -0.1582 0.9494 0.2713
vn 0.1582 0.9494 0.2713
vn -0.6934 0.7082 0.1328
vn 0.6934 0.7082 0.1328
vn -1.0000 0.0000 0.0000
vn 1.0000 0.0000 0.0000
vn 0.3051 -0.9450 0.1181
vn -0.3051 -0.9450 0.1181
vn 0.0298 -0.2981 0.9541
vn -0.0298 -0.2981 0.9541
vn 0.1353 -0.3479 0.9277
vn -0.1353 -0.3479 0.9277
vn -0.5085 -0.2755 0.8158
vn 0.5085 -0.2755 0.8158
vn -0.3843 -0.0419 0.9223
vn 0.3843 -0.0419 0.9223
vn -0.2083 0.0374 0.9774
vn 0.2083 0.0374 0.9774
vn -0.5721 -0.4767 0.6674
vn 0.5721 -0.4767 0.6674
vn -0.1369 -0.7531 0.6435
vn 0.1369 -0.7531 0.6435
vn 0.4088 -0.6071 0.6814
vn -0.4088 -0.6071 0.6814
vn 0.5740 -0.4130 0.7070
vn -0.5740 -0.4130 0.7070
vn 0.5665 -0.0968 0.8183
vn -0.5665 -0.0968 0.8183
vn 0.5703 0.1180 0.8129
vn -0.5703 0.1180 0.8129
vn 0.4823 0.5621 0.6719
vn -0.4823 0.5621 0.6719
vn 0.2604 0.6114 0.7473
vn -0.2604 0.6114 0.7473
vn 0.1640 0.3607 0.9182
vn -0.1640 0.3607 0.9182
vn -0.0178 0.2495 0.9682
vn 0.0178 0.2495 0.9682
vn 0.3273 -0.4166 0.8481
vn -0.3273 -0.4166 0.8481
vn 0.2811 -0.2610 0.9235
vn -0.2811 -0.2610 0.9235
vn -0.2542 -0.6514 0.7149
vn 0.2542 -0.6514 0.7149
vn -0.0260 -0.8455 0.5333
vn 0.0260 -0.8455 0.5333
vn -0.3518 -0.2606 0.8991
vn 0.3518 -0.2606 0.8991
vn -0.3523 -0.0110 0.9358
vn 0.3523 -0.0110 0.9358
vn -0.1317 0.4608 0.8777
vn 0.1317 0.4608 0.8777
vn -0.0342 0.6159 0.7870
vn 0.0342 0.6159 0.7870
vn 0.3603 0.5836 0.7277
vn -0.3603 0.5836 0.7277
vn 0.4988 0.5300 0.6858
vn -0.4988 0.5300 0.6858
vn 0.6667 -0.3333 0.6667
vn -0.6667 -0.3333 0.6667
vn 0.8165 -0.0731 0.5727
vn -0.8165 -0.0731 0.5727
vn 0.7840 0.1161 0.6098
vn -0.7840 0.1161 0.6098
vn -0.5306 0.8111 -0.2461
vn 0.5306 0.8111 -0.2461
vn -0.8511 0.3695 -0.3730
vn 0.8511 0.3695 -0.3730
vn -0.2446 0.8675 -0.4331
vn 0.2446 0.8675 -0.4331
vn 0.5924 0.7465 -0.3030
vn -0.5924 0.7465 -0.3030
vn 0.3685 0.8758 -0.3118
vn -0.3685 0.8758 -0.3118
vn 0.2821 0.9151 -0.2880
vn -0.2821 0.9151 -0.2880
vn 0.8561 0.1340 -0.4991
vn -0.8561 0.1340 -0.4991
vn 0.5342 -0.7233 -0.4376
vn -0.5342 -0.7233 -0.4376
vn 0.3849 -0.8131 -0.4368
vn -0.3849 -0.8131 -0.4368
vn 0.2335 -0.5806 -0.7800
vn -0.2335 -0.5806 -0.7800
vn 0.2449 -0.0583 -0.9678
vn -0.2449 -0.0583 -0.9678
vn 0.1163 -0.4535 -0.8837
vn -0.1163 -0.4535 -0.8837
vn 0.1152 -0.9836 -0.1388
vn -0.1152 -0.9836 -0.1388
vn 0.1184 -0.9669 -0.2260
vn -0.1184 -0.9669 -0.2260
vn 0.9597 -0.0085 -0.2808
vn -0.9597 -0.0085 -0.2808
vn 0.9319 0.1629 -0.3242
vn -0.9319 0.1629 -0.3242
vn 0.1626 0.0207 -0.9865
vn -0.1626 0.0207 -0.9865
vn -0.0188 -0.2177 -0.9758
vn 0.0188 -0.2177 -0.9758
vn 0.7538 -0.2926 -0.5884
vn -0.7538 -0.2926 -0.5884
vn 0.9196 0.1379 -0.3678
vn -0.9196 0.1379 -0.3678
vn 0.9297 0.3127 -0.1944
vn -0.9297 0.3127 -0.1944
vn 0.9120 0.3376 -0.2329
vn -0.9120 0.3376 -0.2329
vn 0.9407 0.3338 -0.0607
vn -0.9407 0.3338 -0.0607
vn 0.1761 -0.8805 -0.4402
vn -0.1761 -0.8805 -0.4402
vn 0.3708 -0.4733 -0.7991
vn -0.3708 -0.4733 -0.7991
vn 0.3107 -0.8284 -0.4660
vn -0.3107 -0.8284 -0.4660
vn 0.2793 -0.9515 -0.1287
vn -0.2793 -0.9515 -0.1287
vn 0.3139 -0.9321 -0.1807
vn -0.3139 -0.9321 -0.1807
vn 0.9762 -0.2083 -0.0609
vn -0.9762 -0.2083 -0.0609
vn 0.8267 -0.5066 0.2447
vn -0.8267 -0.5066 0.2447
vn 0.3449 -0.1158 -0.9315
vn -0.3449 -0.1158 -0.9315
vn 0.1203 0.9644 0.2355
vn -0.1203 0.9644 0.2355
vn 0.1275 0.9744 -0.1851
vn -0.1275 0.9744 -0.1851
vn 0.3492 0.5947 -0.7241
vn -0.3492 0.5947 -0.7241
vn 0.4153 0.8981 -0.1449
vn -0.4153 0.8981 -0.1449
vn 0.1845 0.7036 0.6863
vn -0.1845 0.7036 0.6863
vn 0.6056 0.7794 0.1608
vn -0.6056 0.7794 0.1608
vn 0.7033 0.6806 -0.2053
vn -0.7033 0.6806 -0.2053
vn 0.6679 0.2007 -0.7166
vn -0.6679 0.2007 -0.7166
vn 0.4948 0.4342 -0.7528
vn -0.4948 0.4342 -0.7528
vn 0.6423 0.7459 -0.1761
vn -0.6423 0.7459 -0.1761
vn 0.7182 0.6788 0.1530
vn -0.7182 0.6788 0.1530
vn 0.7388 0.3972 0.5444
vn -0.7388 0.3972 0.5444
vn 0.3428 0.9261 -0.1579
vn -0.3428 0.9261 -0.1579
vn 0.2270 0.5740 0.7867
vn -0.2270 0.5740 0.7867
vn -0.1722 0.1046 -0.9795
vn 0.1722 0.1046 -0.9795
vn 0.0425 0.9150 0.4013
vn -0.0425 0.9150 0.4013
vn -0.1616 0.1847 0.9694
vn 0.1616 0.1847 0.9694
vn 0.9791 0.1973 0.0483
vn -0.9791 0.1973 0.0483
vn 0.9470 0.0918 0.3079
vn -0.9470 0.0918 0.3079
vn 0.9794 0.1905 -0.0661
vn -0.9794 0.1905 -0.0661
vn 0.9938 0.0312 -0.1070
vn -0.9938 0.0312 -0.1070
vn 0.7116 -0.7008 0.0501
vn -0.7116 -0.7008 0.0501
vn 0.3722 -0.9243 0.0847
vn -0.3722 -0.9243 0.0847
vn 0.4465 -0.8644 0.2310
vn -0.4465 -0.8644 0.2310
vn 0.6066 -0.7578 0.2405
vn -0.6066 -0.7578 0.2405
vn 0.7325 -0.6368 0.2407
vn -0.7325 -0.6368 0.2407
vn 0.2637 -0.4499 0.8533
vn -0.2637 -0.4499 0.8533
vn 0.5568 -0.3181 -0.7673
vn -0.5568 -0.3181 -0.7673
vn 0.5004 -0.2807 -0.8190
vn -0.5004 -0.2807 -0.8190
vn 0.3190 -0.8494 -0.4205
vn -0.3190 -0.8494 -0.4205
vn 0.7198 -0.6356 -0.2793
vn -0.7198 -0.6356 -0.2793
vn 0.4972 -0.4408 -0.7473
vn -0.4972 -0.4408 -0.7473
vn 0.3506 0.3807 0.8557
vn -0.3506 0.3807 0.8557
vn 0.4565 0.1715 0.8730
vn -0.4566 0.1715 0.8730
vn 0.2583 0.1055 0.9603
vn -0.2583 0.1055 0.9603
vn 0.2455 -0.0802 0.9661
vn -0.2455 -0.0802 0.9661
vn 0.4643 -0.0599 0.8837
vn -0.4643 -0.0599 0.8837
vn 0.6225 -0.3045 0.7210
vn -0.6225 -0.3045 0.7210
vn 0.4500 0.6590 0.6027
vn -0.4500 0.6590 0.6027
vn -0.2667 0.8309 0.4884
vn 0.2667 0.8309 0.4884
vn -0.8284 0.2291 0.5111
vn 0.8284 0.2291 0.5111
vn -0.5251 -0.3566 0.7727
vn 0.5251 -0.3566 0.7727
vn 0.4546 -0.5665 0.6873
vn -0.4546 -0.5665 0.6873
vn 0.6996 -0.4497 0.5552
vn -0.6996 -0.4497 0.5552
vn 0.7220 -0.6827 -0.1126
vn -0.7220 -0.6827 -0.1126
vn -0.1919 0.2860 0.9388
vn 0.1919 0.2860 0.9388
vn 0.9048 -0.3734 -0.2047
vn -0.9048 -0.3734 -0.2047
vn 0.1034 0.1551 0.9825
vn -0.1034 0.1551 0.9825
vn 0.0841 0.9318 0.3530
vn -0.0841 0.9318 0.3530
vn 0.6446 -0.0883 0.7594
vn -0.6446 -0.0883 0.7594
vn 0.4309 0.4740 0.7678
vn -0.4309 0.4740 0.7678
vn 0.8032 -0.4847 0.3462
vn -0.8032 -0.4847 0.3462
vn 0.5811 -0.4128 0.7014
vn -0.5811 -0.4128 0.7014
vn 0.5910 -0.4305 0.6822
vn -0.5910 -0.4305 0.6822
vn 0.9818 -0.1804 -0.0591
vn -0.9818 -0.1804 -0.0591
vn 0.9105 -0.3965 -0.1175
vn -0.9105 -0.3965 -0.1175
vn 0.9972 -0.0181 -0.0725
vn -0.9972 -0.0181 -0.0725
vn 0.7313 -0.6543 0.1925
vn -0.7313 -0.6543 0.1924
vn 0.7867 -0.6079 0.1073
vn -0.7867 -0.6079 0.1073
vn 0.7022 -0.7022 0.1170
vn -0.7022 -0.7022 0.1170
vn 0.1840 0.9816 -0.0511
vn -0.1840 0.9816 -0.0511
vn 0.9352 0.3301 0.1284
vn -0.9352 0.3301 0.1284
vn 0.6633 -0.7463 0.0553
vn -0.6633 -0.7463 0.0553
vn -0.0085 0.9970 0.0767
vn 0.0085 0.9970 0.0767
vn 0.6237 -0.7061 0.3354
vn -0.6237 -0.7061 0.3354
vn 0.2733 -0.8925 0.3587
vn -0.2733 -0.8925 0.3587
vn -0.8328 -0.5080 -0.2200
vn 0.8328 -0.5080 -0.2200
vn -0.8339 0.2377 -0.4981
vn 0.8339 0.2377 -0.4981
vn -0.5655 0.7847 -0.2539
vn 0.5655 0.7847 -0.2539
vn -0.0560 0.9962 0.0672
vn 0.0560 0.9962 0.0672
vn 0.1445 0.0222 0.9893
vn -0.1445 0.0222 0.9893
vn 0.3275 0.0645 0.9427
vn -0.3275 0.0645 0.9427
vn 0.3127 0.0232 0.9496
vn -0.3127 0.0232 0.9496
vn 0.1710 0.0274 0.9849
vn -0.1710 0.0274 0.9849
vn 0.3487 0.2849 0.8929
vn -0.3487 0.2849 0.8929
vn 0.4006 -0.0343 0.9156
vn -0.4006 -0.0343 0.9156
vn 0.2572 -0.0603 0.9645
vn -0.2572 -0.0603 0.9645
vn 0.0637 -0.0106 0.9979
vn -0.0637 -0.0106 0.9979
vn -0.3637 0.7039 0.6101
vn 0.3637 0.7039 0.6101
vn 0.6299 0.0355 0.7759
vn -0.6299 0.0355 0.7759
vn 0.4472 -0.2002 0.8717
vn -0.4472 -0.2002 0.8717
vn 0.5072 -0.2141 0.8348
vn -0.5072 -0.2141 0.8348
vn 0.5258 0.2619 0.8093
vn -0.5258 0.2619 0.8093
vn 0.2980 0.5802 0.7580
vn -0.2980 0.5802 0.7580
vn 0.0930 -0.9924 -0.0805
vn -0.0930 -0.9924 -0.0805
vn 0.5006 -0.8657 0.0080
vn -0.5006 -0.8657 0.0080
vn 0.9285 -0.2497 0.2748
vn -0.9285 -0.2497 0.2748
vn 0.8393 0.5424 -0.0378
vn -0.8393 0.5424 -0.0378
vn -0.2355 0.9367 -0.2589
vn 0.2355 0.9367 -0.2589
vn -0.4499 0.8838 -0.1285
vn 0.4499 0.8838 -0.1285
vn -0.5384 -0.0098 -0.8427
vn 0.5384 -0.0098 -0.8427
vn -0.1910 -0.0241 -0.9813
vn 0.1910 -0.0241 -0.9813
vn 0.4046 0.0266 -0.9141
vn -0.4046 0.0266 -0.9141
vn -0.7819 0.6231 0.0197
vn 0.7819 0.6231 0.0197
vn 0.5428 -0.2063 -0.8142
vn -0.5428 -0.2063 -0.8142
vn -0.2474 -0.9231 -0.2945
vn 0.2474 -0.9231 -0.2945
s off
f 47/1/1 1/2/1 3/3/1 45/4/1
f 4/5/2 2/6/2 48/7/2 46/8/2
f 45/9/3 3/10/3 5/11/3 43/12/3
f 6/13/4 4/14/4 46/15/4 44/16/4
f 3/17/5 9/18/5 7/19/5 5/20/5
f 8/21/6 10/22/6 4/23/6 6/24/6
f 1/2/7 11/25/7 9/26/7 3/3/7
f 10/27/8 12/28/8 2/6/8 4/5/8
f 11/25/9 13/29/9 15/30/9 9/26/9
f 16/31/10 14/32/10 12/28/10 10/27/10
f 9/18/11 15/33/11 17/34/11 7/19/11
f 18/35/12 16/36/12 10/22/12 8/21/12
f 15/37/13 21/38/13 19/39/13 17/40/13
f 20/41/14 22/42/14 16/43/14 18/44/14
f 13/29/15 23/45/15 21/46/15 15/30/15
f 22/47/16 24/48/16 14/32/16 16/31/16
f 23/45/17 25/49/17 27/50/17 21/46/17
f 28/51/18 26/52/18 24/48/18 22/47/18
f 21/38/19 27/53/19 29/54/19 19/39/19
f 30/55/20 28/56/20 22/42/20 20/41/20
f 27/57/21 33/58/21 31/59/21 29/60/21
f 32/61/22 34/62/22 28/63/22 30/64/22
f 25/49/23 35/65/23 33/66/23 27/50/23
f 34/67/24 36/68/24 26/52/24 28/51/24
f 35/65/25 37/69/25 39/70/25 33/66/25
f 40/71/26 38/72/26 36/68/26 34/67/26
f 33/58/27 39/73/27 41/74/27 31/59/27
f 42/75/28 40/76/28 34/62/28 32/61/28
f 39/77/29 45/9/29 43/12/29 41/78/29
f 44/16/30 46/15/30 40/79/30 42/80/30
f 37/69/31 47/1/31 45/4/31 39/70/31
f 46/8/32 48/7/32 38/72/32 40/71/32
f 47/81/33 37/82/33 51/83/33 49/84/33
f 52/85/34 38/86/34 48/87/34 50/88/34
f 37/89/35 35/90/35 53/91/35 51/92/35
f 54/93/36 36/94/36 38/95/36 52/96/36
f 35/90/37 25/97/37 55/98/37 53/91/37
f 56/99/38 26/100/38 36/94/38 54/93/38
f 25/101/39 23/102/39 57/103/39 55/104/39
f 58/105/40 24/106/40 26/107/40 56/108/40
f 23/102/41 13/109/41 59/110/41 57/103/41
f 60/111/42 14/112/42 24/106/42 58/105/42
f 13/113/43 11/114/43 63/115/43 59/116/43
f 64/117/44 12/118/44 14/119/44 60/120/44
f 11/114/45 1/121/45 65/122/45 63/115/45
f 66/123/46 2/124/46 12/118/46 64/117/46
f 1/125/47 47/81/47 49/84/47 65/126/47
f 50/88/48 48/87/48 2/127/48 66/128/48
f 61/129/49 65/130/49 49/131/49
f 50/132/50 66/133/50 62/134/50
f 63/135/51 65/130/51 61/129/51
f 62/134/52 66/133/52 64/136/52
f 61/129/53 59/137/53 63/135/53
f 64/136/54 60/138/54 62/134/54
f 61/129/55 57/139/55 59/137/55
f 60/138/56 58/140/56 62/134/56
f 61/129/57 55/141/57 57/139/57
f 58/140/58 56/142/58 62/134/58
f 61/129/59 53/143/59 55/141/59
f 56/142/60 54/144/60 62/134/60
f 61/129/61 51/145/61 53/143/61
f 54/144/62 52/146/62 62/134/62
f 61/129/63 49/131/63 51/145/63
f 52/146/64 50/132/64 62/134/64
f 89/147/65 174/148/65 176/149/65 91/150/65
f 176/149/66 175/151/66 90/152/66 91/150/66
f 87/153/67 172/154/67 174/148/67 89/147/67
f 175/151/68 173/155/68 88/156/68 90/152/68
f 85/157/69 170/158/69 172/159/69 87/160/69
f 173/161/70 171/162/70 86/163/70 88/164/70
f 83/165/71 168/166/71 170/167/71 85/168/71
f 171/169/72 169/170/72 84/171/72 86/172/72
f 81/173/73 166/174/73 168/166/73 83/165/73
f 169/170/74 167/175/74 82/176/74 84/171/74
f 79/177/75 92/178/75 146/179/75 164/180/75
f 147/181/76 93/182/76 80/183/76 165/184/76
f 92/178/77 94/185/77 148/186/77 146/179/77
f 149/187/78 95/188/78 93/182/78 147/181/78
f 94/189/79 96/190/79 150/191/79 148/192/79
f 151/193/80 97/194/80 95/195/80 149/196/80
f 96/197/81 98/198/81 152/199/81 150/200/81
f 153/201/82 99/202/82 97/203/82 151/204/82
f 98/198/83 100/205/83 154/206/83 152/199/83
f 155/207/84 101/208/84 99/202/84 153/201/84
f 100/209/85 102/210/85 156/211/85 154/212/85
f 157/213/86 103/214/86 101/215/86 155/216/86
f 102/217/87 104/218/87 158/219/87 156/220/87
f 159/221/88 105/222/88 103/223/88 157/224/88
f 104/225/89 106/226/89 160/227/89 158/228/89
f 161/229/90 107/230/90 105/231/90 159/232/90
f 106/233/91 108/234/91 162/235/91 160/236/91
f 163/237/92 109/238/92 107/239/92 161/240/92
f 108/241/93 67/242/93 68/243/93 162/244/93
f 68/243/94 67/242/94 109/245/94 163/246/94
f 110/247/95 128/248/95 160/227/95 162/244/95
f 161/229/96 129/249/96 111/250/96 163/246/96
f 128/248/97 179/251/97 158/228/97 160/227/97
f 159/232/98 180/252/98 129/249/98 161/229/98
f 126/253/99 156/254/99 158/228/99 179/251/99
f 159/232/100 157/255/100 127/256/100 180/252/100
f 124/257/101 154/206/101 156/254/101 126/253/101
f 157/255/102 155/207/102 125/258/102 127/256/102
f 122/259/103 152/199/103 154/206/103 124/257/103
f 155/207/104 153/201/104 123/260/104 125/258/104
f 120/261/105 150/200/105 152/199/105 122/259/105
f 153/201/106 151/204/106 121/262/106 123/260/106
f 118/263/107 148/264/107 150/200/107 120/261/107
f 151/204/108 149/265/108 119/266/108 121/262/108
f 116/267/109 146/268/109 148/264/109 118/263/109
f 149/265/110 147/269/110 117/270/110 119/266/110
f 114/271/111 164/272/111 146/268/111 116/267/111
f 147/269/112 165/273/112 115/274/112 117/270/112
f 114/271/113 181/275/113 177/276/113 164/272/113
f 177/276/114 182/277/114 115/274/114 165/273/114
f 110/247/115 162/244/115 68/243/115 112/278/115
f 68/243/116 163/246/116 111/250/116 113/279/116
f 112/278/117 68/243/117 178/280/117 183/281/117
f 178/280/118 68/243/118 113/279/118 184/282/118
f 177/276/119 181/275/119 183/281/119 178/280/119
f 184/282/120 182/277/120 177/276/120 178/280/120
f 135/283/121 137/284/121 176/285/121 174/286/121
f 176/285/122 137/284/122 136/287/122 175/288/122
f 133/289/123 135/283/123 174/286/123 172/159/123
f 175/288/124 136/287/124 134/290/124 173/161/124
f 131/291/125 133/289/125 172/159/125 170/158/125
f 173/161/126 134/290/126 132/292/126 171/162/126
f 166/293/127 187/294/127 185/295/127 168/296/127
f 186/297/128 188/298/128 167/299/128 169/300/128
f 131/291/129 170/158/129 168/296/129 185/295/129
f 169/300/130 171/162/130 132/292/130 186/297/130
f 144/301/131 190/302/131 189/303/131 187/294/131
f 189/303/132 190/302/132 145/304/132 188/298/132
f 185/295/133 187/294/133 189/303/133 69/305/133
f 189/303/134 188/298/134 186/297/134 69/305/134
f 130/306/135 131/291/135 185/295/135 69/305/135
f 186/297/135 132/292/135 130/306/135 69/305/135
f 142/307/136 193/308/136 191/309/136 144/310/136
f 192/311/137 194/312/137 143/313/137 145/314/137
f 140/315/138 195/316/138 193/308/138 142/307/138
f 194/312/139 196/317/139 141/318/139 143/313/139
f 139/319/140 197/320/140 195/321/140 140/322/140
f 196/323/141 198/324/141 139/325/141 141/326/141
f 138/327/142 71/328/142 197/329/142 139/330/142
f 198/331/143 71/328/143 138/327/143 139/330/143
f 190/332/144 144/333/144 191/334/144 70/335/144
f 192/336/145 145/337/145 190/332/145 70/335/145
f 70/338/146 191/339/146 206/340/146 208/341/146
f 207/342/147 192/343/147 70/338/147 208/341/147
f 71/328/148 199/344/148 200/345/148 197/329/148
f 201/346/149 199/344/149 71/328/149 198/331/149
f 197/320/150 200/347/150 202/348/150 195/321/150
f 203/349/151 201/350/151 198/324/151 196/323/151
f 195/316/152 202/351/152 204/352/152 193/308/152
f 205/353/153 203/354/153 196/317/153 194/312/153
f 193/355/154 204/356/154 206/357/154 191/358/154
f 207/359/155 205/360/155 194/361/155 192/362/155
f 199/363/156 204/364/156 202/365/156 200/366/156
f 203/367/157 205/368/157 199/363/157 201/369/157
f 199/363/158 208/341/158 206/340/158 204/364/158
f 207/342/159 208/341/159 199/363/159 205/368/159
f 139/370/160 140/371/160 164/272/160 177/276/160
f 165/273/161 141/372/161 139/370/161 177/276/161
f 140/371/162 142/373/162 211/374/162 164/272/162
f 212/375/163 143/376/163 141/372/163 165/273/163
f 142/373/164 144/301/164 213/377/164 211/374/164
f 214/378/165 145/304/165 143/376/165 212/375/165
f 144/301/166 187/294/166 166/293/166 213/377/166
f 167/299/167 188/298/167 145/304/167 214/378/167
f 81/173/168 209/379/168 213/380/168 166/174/168
f 214/381/169 210/382/169 82/176/169 167/175/169
f 209/379/170 215/383/170 211/384/170 213/380/170
f 212/385/171 216/386/171 210/382/171 214/381/171
f 79/387/172 164/388/172 211/384/172 215/383/172
f 212/385/173 165/389/173 80/390/173 216/386/173
f 131/291/174 130/306/174 72/391/174 222/392/174
f 72/391/175 130/306/175 132/292/175 223/393/175
f 133/289/176 131/291/176 222/392/176 220/394/176
f 223/393/177 132/292/177 134/290/177 221/395/177
f 135/283/178 133/289/178 220/394/178 218/396/178
f 221/395/179 134/290/179 136/287/179 219/397/179
f 137/284/180 135/283/180 218/396/180 217/398/180
f 219/397/181 136/287/181 137/284/181 217/398/181
f 217/399/182 218/400/182 229/401/182 231/402/182
f 230/403/183 219/404/183 217/399/183 231/402/183
f 218/400/184 220/405/184 227/406/184 229/401/184
f 228/407/185 221/408/185 219/404/185 230/403/185
f 220/409/186 222/410/186 225/411/186 227/412/186
f 226/413/187 223/414/187 221/415/187 228/416/187
f 222/417/188 72/418/188 224/419/188 225/420/188
f 224/419/189 72/418/189 223/421/189 226/422/189
f 224/423/190 231/424/190 229/425/190 225/426/190
f 230/427/191 231/424/191 224/423/191 226/428/191
f 225/426/192 229/425/192 227/429/192
f 228/430/193 230/427/193 226/428/193
f 183/281/194 181/275/194 234/431/194 232/432/194
f 235/433/195 182/277/195 184/282/195 233/434/195
f 112/278/196 183/281/196 232/432/196 254/435/196
f 233/434/197 184/282/197 113/279/197 255/436/197
f 110/247/198 112/278/198 254/435/198 256/437/198
f 255/436/199 113/279/199 111/250/199 257/438/199
f 181/275/200 114/271/200 252/439/200 234/431/200
f 253/440/201 115/274/201 182/277/201 235/433/201
f 114/441/202 116/442/202 250/443/202 252/444/202
f 251/445/203 117/446/203 115/447/203 253/448/203
f 116/267/204 118/263/204 248/449/204 250/450/204
f 249/451/205 119/266/205 117/270/205 251/452/205
f 118/263/206 120/261/206 246/453/206 248/449/206
f 247/454/207 121/262/207 119/266/207 249/451/207
f 120/261/208 122/259/208 244/455/208 246/453/208
f 245/456/209 123/260/209 121/262/209 247/454/209
f 122/259/210 124/257/210 242/457/210 244/455/210
f 243/458/211 125/258/211 123/260/211 245/456/211
f 124/257/212 126/253/212 240/459/212 242/457/212
f 241/460/213 127/256/213 125/258/213 243/458/213
f 126/253/214 179/251/214 236/461/214 240/459/214
f 237/462/215 180/252/215 127/256/215 241/460/215
f 179/251/216 128/248/216 238/463/216 236/461/216
f 239/464/217 129/249/217 180/252/217 237/462/217
f 128/248/218 110/247/218 256/437/218 238/463/218
f 257/438/219 111/250/219 129/249/219 239/464/219
f 238/463/220 256/437/220 258/465/220 276/466/220
f 259/467/221 257/438/221 239/464/221 277/468/221
f 236/461/222 238/463/222 276/466/222 278/469/222
f 277/468/223 239/464/223 237/462/223 279/470/223
f 240/459/224 236/461/224 278/469/224 274/471/224
f 279/470/225 237/462/225 241/460/225 275/472/225
f 242/473/226 240/474/226 274/475/226 272/476/226
f 275/477/227 241/478/227 243/479/227 273/480/227
f 244/455/228 242/457/228 272/481/228 270/482/228
f 273/483/229 243/458/229 245/456/229 271/484/229
f 246/453/230 244/455/230 270/482/230 268/485/230
f 271/484/231 245/456/231 247/454/231 269/486/231
f 248/449/232 246/453/232 268/485/232 266/487/232
f 269/486/233 247/454/233 249/451/233 267/488/233
f 250/450/234 248/449/234 266/487/234 264/489/234
f 267/488/235 249/451/235 251/452/235 265/490/235
f 252/439/236 250/450/236 264/489/236 262/491/236
f 265/490/237 251/452/237 253/440/237 263/492/237
f 234/431/238 252/439/238 262/491/238 280/493/238
f 263/492/239 253/440/239 235/433/239 281/494/239
f 256/437/240 254/435/240 260/495/240 258/465/240
f 261/496/241 255/436/241 257/438/241 259/467/241
f 254/497/242 232/498/242 282/499/242 260/500/242
f 283/501/243 233/502/243 255/503/243 261/504/243
f 232/498/244 234/505/244 280/506/244 282/499/244
f 281/507/245 235/508/245 233/502/245 283/501/245
f 67/509/246 108/510/246 284/511/246 73/512/246
f 285/513/247 109/514/247 67/509/247 73/512/247
f 108/234/248 106/233/248 286/515/248 284/516/248
f 287/517/249 107/239/249 109/238/249 285/518/249
f 106/519/250 104/520/250 288/521/250 286/522/250
f 289/523/251 105/524/251 107/525/251 287/526/251
f 104/520/252 102/210/252 290/527/252 288/521/252
f 291/528/253 103/214/253 105/524/253 289/523/253
f 102/210/254 100/209/254 292/529/254 290/527/254
f 293/530/255 101/215/255 103/214/255 291/528/255
f 100/209/256 98/531/256 294/532/256 292/529/256
f 295/533/257 99/534/257 101/215/257 293/530/257
f 98/535/258 96/536/258 296/537/258 294/538/258
f 297/539/259 97/540/259 99/541/259 295/542/259
f 96/543/260 94/185/260 298/544/260 296/545/260
f 299/546/261 95/188/261 97/547/261 297/548/261
f 94/185/262 92/178/262 300/549/262 298/544/262
f 301/550/263 93/182/263 95/188/263 299/546/263
f 308/551/264 309/552/264 328/553/264 338/554/264
f 329/555/265 309/552/265 308/551/265 339/556/265
f 307/557/266 308/551/266 338/554/266 336/558/266
f 339/556/267 308/551/267 307/557/267 337/559/267
f 306/560/268 307/557/268 336/558/268 340/561/268
f 337/559/269 307/557/269 306/560/269 341/562/269
f 89/147/270 91/150/270 306/563/270 340/564/270
f 306/563/271 91/150/271 90/152/271 341/565/271
f 87/153/272 89/147/272 340/564/272 334/566/272
f 341/565/273 90/152/273 88/156/273 335/567/273
f 85/168/274 87/568/274 334/569/274 330/570/274
f 335/571/275 88/572/275 86/172/275 331/573/275
f 83/165/276 85/168/276 330/570/276 332/574/276
f 331/573/277 86/172/277 84/171/277 333/575/277
f 330/576/278 336/558/278 338/554/278 332/577/278
f 339/556/279 337/559/279 331/578/279 333/579/279
f 330/576/280 334/580/280 340/561/280 336/558/280
f 341/562/281 335/581/281 331/578/281 337/559/281
f 326/582/282 332/574/282 338/583/282 328/584/282
f 339/585/283 333/586/283 327/587/283 329/588/283
f 81/173/284 83/165/284 332/574/284 326/582/284
f 333/575/285 84/171/285 82/176/285 327/589/285
f 209/379/286 342/590/286 344/591/286 215/383/286
f 345/592/287 343/593/287 210/382/287 216/386/287
f 81/173/288 326/582/288 342/590/288 209/379/288
f 343/593/289 327/589/289 82/176/289 210/382/289
f 79/387/290 215/383/290 344/591/290 346/594/290
f 345/592/291 216/386/291 80/390/291 347/595/291
f 79/177/292 346/596/292 300/549/292 92/178/292
f 301/550/293 347/597/293 80/183/293 93/182/293
f 77/598/294 324/599/294 352/600/294 304/601/294
f 353/602/295 325/603/295 77/598/295 304/601/295
f 304/604/296 352/605/296 350/606/296 78/607/296
f 351/608/297 353/609/297 304/604/297 78/607/297
f 78/607/298 350/606/298 348/610/298 305/611/298
f 349/612/299 351/608/299 78/607/299 305/611/299
f 305/611/300 348/610/300 328/613/300 309/614/300
f 329/615/301 349/612/301 305/611/301 309/614/301
f 326/582/302 328/584/302 348/616/302 342/590/302
f 349/617/303 329/588/303 327/587/303 343/618/303
f 296/537/304 298/619/304 318/620/304 310/621/304
f 319/622/305 299/623/305 297/624/305 311/625/305
f 76/626/306 316/627/306 324/599/306 77/598/306
f 325/603/307 317/628/307 76/626/307 77/598/307
f 302/629/308 358/630/308 356/631/308 303/632/308
f 357/633/309 359/634/309 302/629/309 303/632/309
f 303/632/310 356/631/310 354/635/310 75/636/310
f 355/637/311 357/633/311 303/632/311 75/636/311
f 75/638/312 354/639/312 316/627/312 76/626/312
f 317/628/313 355/640/313 75/638/313 76/626/313
f 292/529/314 294/532/314 362/641/314 364/642/314
f 363/643/315 295/644/315 293/645/315 365/646/315
f 364/647/316 362/648/316 368/649/316 366/650/316
f 369/651/317 363/643/317 365/646/317 367/652/317
f 366/650/318 368/649/318 370/653/318 372/654/318
f 371/655/319 369/651/319 367/652/319 373/656/319
f 372/657/320 370/658/320 376/659/320 374/660/320
f 377/661/321 371/662/321 373/663/321 375/664/321
f 314/665/322 378/666/322 374/667/322 376/668/322
f 375/669/323 379/670/323 315/671/323 377/672/323
f 316/627/324 354/639/324 374/667/324 378/666/324
f 375/669/325 355/640/325 317/628/325 379/670/325
f 354/635/326 356/631/326 372/673/326 374/674/326
f 373/675/327 357/633/327 355/637/327 375/676/327
f 356/677/328 358/678/328 366/679/328 372/680/328
f 367/681/329 359/682/329 357/683/329 373/684/329
f 358/678/330 360/685/330 364/686/330 366/679/330
f 365/687/331 361/688/331 359/682/331 367/681/331
f 290/527/332 292/529/332 364/642/332 360/689/332
f 365/646/333 293/645/333 291/690/333 361/691/333
f 74/692/334 360/693/334 358/694/334 302/695/334
f 359/696/335 361/697/335 74/692/335 302/695/335
f 284/698/336 286/699/336 288/700/336 290/701/336
f 289/702/337 287/703/337 285/704/337 291/705/337
f 284/706/338 290/527/338 360/689/338 74/707/338
f 361/708/339 291/709/339 285/710/339 74/711/339
f 73/712/340 284/713/340 74/714/340
f 74/714/341 285/715/341 73/712/341
f 294/538/342 296/537/342 310/621/342 362/716/342
f 311/625/343 297/624/343 295/717/343 363/718/343
f 310/719/344 312/720/344 368/721/344 362/722/344
f 369/723/345 313/724/345 311/625/345 363/718/345
f 312/720/346 382/725/346 370/658/346 368/721/346
f 371/662/347 383/726/347 313/724/347 369/723/347
f 314/727/348 376/659/348 370/658/348 382/725/348
f 371/662/349 377/661/349 315/728/349 383/726/349
f 348/729/350 350/730/350 386/731/350 384/732/350
f 387/733/351 351/734/351 349/617/351 385/735/351
f 318/736/352 384/737/352 386/738/352 320/739/352
f 387/740/353 385/741/353 319/742/353 321/743/353
f 298/544/354 300/549/354 384/744/354 318/745/354
f 385/741/355 301/746/355 299/747/355 319/742/355
f 300/549/356 344/748/356 342/749/356 384/744/356
f 343/750/357 345/751/357 301/752/357 385/753/357
f 342/590/358 348/616/358 384/754/358
f 385/735/359 349/617/359 343/618/359
f 300/755/360 346/756/360 344/757/360
f 345/758/361 347/759/361 301/760/361
f 314/665/362 322/761/362 380/762/362 378/666/362
f 381/763/363 323/764/363 315/671/363 379/670/363
f 316/627/364 378/666/364 380/762/364 324/599/364
f 381/763/365 379/670/365 317/628/365 325/603/365
f 320/739/366 386/738/366 380/765/366 322/766/366
f 381/767/367 387/740/367 321/743/367 323/768/367
f 350/730/368 352/769/368 380/770/368 386/731/368
f 381/771/369 353/772/369 351/734/369 387/733/369
f 324/599/370 380/762/370 352/600/370
f 353/602/371 381/763/371 325/603/371
f 400/773/372 388/774/372 414/775/372 402/776/372
f 415/777/373 389/778/373 401/779/373 403/780/373
f 400/773/374 402/776/374 404/781/374 398/782/374
f 405/783/375 403/784/375 401/785/375 399/786/375
f 398/782/376 404/781/376 406/787/376 396/788/376
f 407/789/377 405/783/377 399/786/377 397/790/377
f 396/788/378 406/787/378 408/791/378 394/792/378
f 409/793/379 407/789/379 397/790/379 395/794/379
f 394/792/380 408/791/380 410/795/380 392/796/380
f 411/797/381 409/793/381 395/794/381 393/798/381
f 392/796/382 410/795/382 412/799/382 390/800/382
f 413/801/383 411/802/383 393/803/383 391/804/383
f 410/805/384 420/806/384 418/807/384 412/808/384
f 419/809/385 421/810/385 411/811/385 413/812/385
f 408/813/386 422/814/386 420/806/386 410/805/386
f 421/815/387 423/816/387 409/817/387 411/818/387
f 406/819/388 424/820/388 422/821/388 408/822/388
f 423/823/389 425/824/389 407/825/389 409/826/389
f 404/781/390 426/827/390 424/828/390 406/787/390
f 425/829/391 427/830/391 405/783/391 407/789/391
f 402/776/392 428/831/392 426/827/392 404/781/392
f 427/830/393 429/832/393 403/784/393 405/783/393
f 402/833/394 414/834/394 416/835/394 428/836/394
f 417/837/395 415/838/395 403/839/395 429/840/395
f 318/841/396 320/842/396 444/843/396 442/844/396
f 445/845/397 321/846/397 319/622/397 443/847/397
f 320/848/398 390/849/398 412/850/398 444/851/398
f 413/801/399 391/804/399 321/852/399 445/853/399
f 310/719/400 318/841/400 442/844/400 312/720/400
f 443/847/401 319/622/401 311/625/401 313/724/401
f 382/854/402 430/855/402 414/856/402 388/857/402
f 415/777/403 431/858/403 383/859/403 389/778/403
f 412/860/404 418/861/404 440/862/404 444/863/404
f 441/864/405 419/809/405 413/812/405 445/865/405
f 438/866/406 446/867/406 444/868/406 440/869/406
f 445/870/407 447/871/407 439/872/407 441/873/407
f 434/874/408 446/867/408 438/866/408 436/875/408
f 439/872/409 447/871/409 435/876/409 437/877/409
f 432/878/410 448/879/410 446/880/410 434/881/410
f 447/882/411 449/883/411 433/884/411 435/885/411
f 430/855/412 448/886/412 432/887/412 450/888/412
f 433/889/413 449/890/413 431/858/413 451/891/413
f 414/856/414 430/855/414 450/888/414 416/892/414
f 451/891/415 431/858/415 415/777/415 417/893/415
f 312/720/416 448/879/416 430/894/416 382/725/416
f 431/895/417 449/883/417 313/724/417 383/726/417
f 312/720/418 442/844/418 446/880/418 448/879/418
f 447/882/419 443/847/419 313/724/419 449/883/419
f 442/844/420 444/843/420 446/880/420
f 447/882/421 445/845/421 443/847/421
f 416/896/422 450/897/422 452/898/422 476/899/422
f 453/900/423 451/901/423 417/902/423 477/903/423
f 450/897/424 432/904/424 462/905/424 452/898/424
f 463/906/425 433/907/425 451/901/425 453/900/425
f 432/908/426 434/909/426 460/910/426 462/911/426
f 461/912/427 435/913/427 433/914/427 463/915/427
f 434/909/428 436/916/428 458/917/428 460/910/428
f 459/918/429 437/919/429 435/913/429 461/912/429
f 436/920/430 438/921/430 456/922/430 458/923/430
f 457/924/431 439/925/431 437/926/431 459/927/431
f 438/928/432 440/862/432 454/929/432 456/930/432
f 455/931/433 441/864/433 439/932/433 457/933/433
f 440/862/434 418/861/434 474/934/434 454/929/434
f 475/935/435 419/809/435 441/864/435 455/931/435
f 428/936/436 416/937/436 476/938/436 464/939/436
f 477/940/437 417/941/437 429/942/437 465/943/437
f 426/944/438 428/936/438 464/939/438 466/945/438
f 465/946/439 429/947/439 427/948/439 467/949/439
f 424/820/440 426/950/440 466/951/440 468/952/440
f 467/953/441 427/954/441 425/824/441 469/955/441
f 422/821/442 424/820/442 468/952/442 470/956/442
f 469/955/443 425/824/443 423/823/443 471/957/443
f 420/806/444 422/814/444 470/958/444 472/959/444
f 471/960/445 423/816/445 421/815/445 473/961/445
f 418/861/446 420/962/446 472/963/446 474/934/446
f 473/961/447 421/815/447 419/964/447 475/965/447
f 458/966/448 456/967/448 480/968/448 478/969/448
f 481/970/449 457/971/449 459/972/449 479/973/449
f 478/969/450 480/968/450 482/974/450 484/975/450
f 483/976/451 481/970/451 479/973/451 485/977/451
f 484/975/452 482/974/452 488/978/452 486/979/452
f 489/980/453 483/981/453 485/982/453 487/983/453
f 486/984/454 488/985/454 490/986/454 492/987/454
f 491/988/455 489/980/455 487/983/455 493/989/455
f 464/990/456 476/991/456 486/984/456 492/987/456
f 487/983/457 477/992/457 465/993/457 493/989/457
f 452/994/458 484/975/458 486/979/458 476/995/458
f 487/983/459 485/982/459 453/996/459 477/992/459
f 452/994/460 462/997/460 478/969/460 484/975/460
f 479/973/461 463/998/461 453/999/461 485/977/461
f 458/966/462 478/969/462 462/997/462 460/1000/462
f 463/998/463 479/973/463 459/972/463 461/1001/463
f 454/929/464 474/934/464 480/1002/464 456/930/464
f 481/1003/465 475/935/465 455/931/465 457/933/465
f 472/1004/466 482/1005/466 480/1006/466 474/1007/466
f 481/970/467 483/976/467 473/1008/467 475/1009/467
f 470/1010/468 488/985/468 482/1005/468 472/1004/468
f 483/976/469 489/1011/469 471/1012/469 473/1008/469
f 468/1013/470 490/986/470 488/985/470 470/1010/470
f 489/980/471 491/988/471 469/1014/471 471/1015/471
f 466/1016/472 492/987/472 490/986/472 468/1013/472
f 491/988/473 493/989/473 467/1017/473 469/1014/473
f 464/990/474 492/987/474 466/1016/474
f 467/1017/475 493/989/475 465/993/475
f 392/1018/476 390/1019/476 504/1020/476 502/1021/476
f 505/1022/477 391/1023/477 393/1024/477 503/1025/477
f 394/1026/478 392/1018/478 502/1021/478 500/1027/478
f 503/1028/479 393/1029/479 395/1030/479 501/1031/479
f 396/1032/480 394/1033/480 500/1034/480 498/1035/480
f 501/1036/481 395/1037/481 397/1038/481 499/1039/481
f 398/1040/482 396/1032/482 498/1035/482 496/1041/482
f 499/1039/483 397/1038/483 399/1042/483 497/1043/483
f 400/1044/484 398/1045/484 496/1046/484 494/1047/484
f 497/1048/485 399/1049/485 401/1050/485 495/1051/485
f 388/1052/486 400/1053/486 494/1054/486 506/1055/486
f 495/1051/487 401/1050/487 389/1056/487 507/1057/487
f 494/1058/488 502/1059/488 504/1060/488 506/1061/488
f 505/1062/489 503/1063/489 495/1064/489 507/1065/489
f 494/1058/490 496/1066/490 500/1067/490 502/1059/490
f 501/1068/491 497/1069/491 495/1070/491 503/1071/491
f 496/1066/492 498/1072/492 500/1067/492
f 501/1068/493 499/1073/493 497/1069/493
f 314/727/494 382/725/494 388/1074/494 506/1075/494
f 389/1076/495 383/726/495 315/728/495 507/1077/495
f 314/665/496 506/1078/496 504/1079/496 322/761/496
f 505/1062/497 507/1065/497 315/671/497 323/764/497
f 320/739/498 322/766/498 504/1080/498 390/1081/498
f 505/1022/499 323/768/499 321/743/499 391/1023/499
